(['C:\\Users\\THouwers\\OneDrive - Deloitte (O365D)\\1. AIM\\Python PPTX '
  'Usecases\\.exe file\\Substitute_text_slidemaster_layout_to_exe.py'],
 ['C:\\Users\\THouwers\\OneDrive - Deloitte (O365D)\\1. AIM\\Python PPTX '
  'Usecases\\.exe file',
  'C:\\Users\\THouwers\\OneDrive - Deloitte (O365D)\\1. AIM\\Python PPTX '
  'Usecases\\.exe file'],
 ['codecs'],
 [],
 ['matplotlib', 'scipy', 'pandas', 'numpy'],
 [],
 False,
 False,
 '3.7.4 (default, Aug  9 2019, 18:34:13) [MSC v.1915 64 bit (AMD64)]',
 [('pyi_rth_multiprocessing',
   'c:\\users\\thouwers\\appdata\\local\\continuum\\anaconda3\\lib\\site-packages\\PyInstaller\\loader\\rthooks\\pyi_rth_multiprocessing.py',
   'PYSOURCE'),
  ('pyi_rth_pkgres',
   'c:\\users\\thouwers\\appdata\\local\\continuum\\anaconda3\\lib\\site-packages\\PyInstaller\\loader\\rthooks\\pyi_rth_pkgres.py',
   'PYSOURCE'),
  ('pyi_rth_win32comgenpy',
   'c:\\users\\thouwers\\appdata\\local\\continuum\\anaconda3\\lib\\site-packages\\PyInstaller\\loader\\rthooks\\pyi_rth_win32comgenpy.py',
   'PYSOURCE'),
  ('Substitute_text_slidemaster_layout_to_exe',
   'C:\\Users\\THouwers\\OneDrive - Deloitte (O365D)\\1. AIM\\Python PPTX '
   'Usecases\\.exe file\\Substitute_text_slidemaster_layout_to_exe.py',
   'PYSOURCE')],
 [('win32com',
   'c:\\users\\thouwers\\appdata\\local\\continuum\\anaconda3\\lib\\site-packages\\win32com\\__init__.py',
   'PYMODULE'),
  ('win32com.server.util',
   'c:\\users\\thouwers\\appdata\\local\\continuum\\anaconda3\\lib\\site-packages\\win32com\\server\\util.py',
   'PYMODULE'),
  ('win32com.server.dispatcher',
   'c:\\users\\thouwers\\appdata\\local\\continuum\\anaconda3\\lib\\site-packages\\win32com\\server\\dispatcher.py',
   'PYMODULE'),
  ('win32traceutil',
   'c:\\users\\thouwers\\appdata\\local\\continuum\\anaconda3\\lib\\site-packages\\win32\\lib\\win32traceutil.py',
   'PYMODULE'),
  ('win32com.util',
   'c:\\users\\thouwers\\appdata\\local\\continuum\\anaconda3\\lib\\site-packages\\win32com\\util.py',
   'PYMODULE'),
  ('win32con',
   'c:\\users\\thouwers\\appdata\\local\\continuum\\anaconda3\\lib\\site-packages\\win32\\lib\\win32con.py',
   'PYMODULE'),
  ('win32com.server.exception',
   'c:\\users\\thouwers\\appdata\\local\\continuum\\anaconda3\\lib\\site-packages\\win32com\\server\\exception.py',
   'PYMODULE'),
  ('winerror',
   'c:\\users\\thouwers\\appdata\\local\\continuum\\anaconda3\\lib\\site-packages\\win32\\lib\\winerror.py',
   'PYMODULE'),
  ('win32com.server.policy',
   'c:\\users\\thouwers\\appdata\\local\\continuum\\anaconda3\\lib\\site-packages\\win32com\\server\\policy.py',
   'PYMODULE'),
  ('win32com.client',
   'c:\\users\\thouwers\\appdata\\local\\continuum\\anaconda3\\lib\\site-packages\\win32com\\client\\__init__.py',
   'PYMODULE'),
  ('win32com.client.makepy',
   'c:\\users\\thouwers\\appdata\\local\\continuum\\anaconda3\\lib\\site-packages\\win32com\\client\\makepy.py',
   'PYMODULE'),
  ('getopt',
   'c:\\users\\thouwers\\appdata\\local\\continuum\\anaconda3\\lib\\getopt.py',
   'PYMODULE'),
  ('gettext',
   'c:\\users\\thouwers\\appdata\\local\\continuum\\anaconda3\\lib\\gettext.py',
   'PYMODULE'),
  ('copy',
   'c:\\users\\thouwers\\appdata\\local\\continuum\\anaconda3\\lib\\copy.py',
   'PYMODULE'),
  ('struct',
   'c:\\users\\thouwers\\appdata\\local\\continuum\\anaconda3\\lib\\struct.py',
   'PYMODULE'),
  ('pywin.dialogs.status',
   'c:\\users\\thouwers\\appdata\\local\\continuum\\anaconda3\\lib\\site-packages\\Pythonwin\\pywin\\dialogs\\status.py',
   'PYMODULE'),
  ('_strptime',
   'c:\\users\\thouwers\\appdata\\local\\continuum\\anaconda3\\lib\\_strptime.py',
   'PYMODULE'),
  ('datetime',
   'c:\\users\\thouwers\\appdata\\local\\continuum\\anaconda3\\lib\\datetime.py',
   'PYMODULE'),
  ('calendar',
   'c:\\users\\thouwers\\appdata\\local\\continuum\\anaconda3\\lib\\calendar.py',
   'PYMODULE'),
  ('argparse',
   'c:\\users\\thouwers\\appdata\\local\\continuum\\anaconda3\\lib\\argparse.py',
   'PYMODULE'),
  ('textwrap',
   'c:\\users\\thouwers\\appdata\\local\\continuum\\anaconda3\\lib\\textwrap.py',
   'PYMODULE'),
  ('threading',
   'c:\\users\\thouwers\\appdata\\local\\continuum\\anaconda3\\lib\\threading.py',
   'PYMODULE'),
  ('_threading_local',
   'c:\\users\\thouwers\\appdata\\local\\continuum\\anaconda3\\lib\\_threading_local.py',
   'PYMODULE'),
  ('contextlib',
   'c:\\users\\thouwers\\appdata\\local\\continuum\\anaconda3\\lib\\contextlib.py',
   'PYMODULE'),
  ('pywin.mfc.thread',
   'c:\\users\\thouwers\\appdata\\local\\continuum\\anaconda3\\lib\\site-packages\\Pythonwin\\pywin\\mfc\\thread.py',
   'PYMODULE'),
  ('pywin.mfc.object',
   'c:\\users\\thouwers\\appdata\\local\\continuum\\anaconda3\\lib\\site-packages\\Pythonwin\\pywin\\mfc\\object.py',
   'PYMODULE'),
  ('pywin.mfc.dialog',
   'c:\\users\\thouwers\\appdata\\local\\continuum\\anaconda3\\lib\\site-packages\\Pythonwin\\pywin\\mfc\\dialog.py',
   'PYMODULE'),
  ('pywin.mfc.window',
   'c:\\users\\thouwers\\appdata\\local\\continuum\\anaconda3\\lib\\site-packages\\Pythonwin\\pywin\\mfc\\window.py',
   'PYMODULE'),
  ('pywin.mfc',
   'c:\\users\\thouwers\\appdata\\local\\continuum\\anaconda3\\lib\\site-packages\\Pythonwin\\pywin\\mfc\\__init__.py',
   'PYMODULE'),
  ('pywin.dialogs',
   'c:\\users\\thouwers\\appdata\\local\\continuum\\anaconda3\\lib\\site-packages\\Pythonwin\\pywin\\dialogs\\__init__.py',
   'PYMODULE'),
  ('pywin',
   'c:\\users\\thouwers\\appdata\\local\\continuum\\anaconda3\\lib\\site-packages\\Pythonwin\\pywin\\__init__.py',
   'PYMODULE'),
  ('win32com.client.gencache',
   'c:\\users\\thouwers\\appdata\\local\\continuum\\anaconda3\\lib\\site-packages\\win32com\\client\\gencache.py',
   'PYMODULE'),
  ('zipfile',
   'c:\\users\\thouwers\\appdata\\local\\continuum\\anaconda3\\lib\\zipfile.py',
   'PYMODULE'),
  ('py_compile',
   'c:\\users\\thouwers\\appdata\\local\\continuum\\anaconda3\\lib\\py_compile.py',
   'PYMODULE'),
  ('ntpath',
   'c:\\users\\thouwers\\appdata\\local\\continuum\\anaconda3\\lib\\ntpath.py',
   'PYMODULE'),
  ('string',
   'c:\\users\\thouwers\\appdata\\local\\continuum\\anaconda3\\lib\\string.py',
   'PYMODULE'),
  ('genericpath',
   'c:\\users\\thouwers\\appdata\\local\\continuum\\anaconda3\\lib\\genericpath.py',
   'PYMODULE'),
  ('importlib.machinery',
   'c:\\users\\thouwers\\appdata\\local\\continuum\\anaconda3\\lib\\importlib\\machinery.py',
   'PYMODULE'),
  ('importlib',
   'c:\\users\\thouwers\\appdata\\local\\continuum\\anaconda3\\lib\\importlib\\__init__.py',
   'PYMODULE'),
  ('importlib.abc',
   'c:\\users\\thouwers\\appdata\\local\\continuum\\anaconda3\\lib\\importlib\\abc.py',
   'PYMODULE'),
  ('importlib._bootstrap',
   'c:\\users\\thouwers\\appdata\\local\\continuum\\anaconda3\\lib\\importlib\\_bootstrap.py',
   'PYMODULE'),
  ('importlib._bootstrap_external',
   'c:\\users\\thouwers\\appdata\\local\\continuum\\anaconda3\\lib\\importlib\\_bootstrap_external.py',
   'PYMODULE'),
  ('tokenize',
   'c:\\users\\thouwers\\appdata\\local\\continuum\\anaconda3\\lib\\tokenize.py',
   'PYMODULE'),
  ('token',
   'c:\\users\\thouwers\\appdata\\local\\continuum\\anaconda3\\lib\\token.py',
   'PYMODULE'),
  ('lzma',
   'c:\\users\\thouwers\\appdata\\local\\continuum\\anaconda3\\lib\\lzma.py',
   'PYMODULE'),
  ('_compression',
   'c:\\users\\thouwers\\appdata\\local\\continuum\\anaconda3\\lib\\_compression.py',
   'PYMODULE'),
  ('bz2',
   'c:\\users\\thouwers\\appdata\\local\\continuum\\anaconda3\\lib\\bz2.py',
   'PYMODULE'),
  ('stat',
   'c:\\users\\thouwers\\appdata\\local\\continuum\\anaconda3\\lib\\stat.py',
   'PYMODULE'),
  ('importlib.util',
   'c:\\users\\thouwers\\appdata\\local\\continuum\\anaconda3\\lib\\importlib\\util.py',
   'PYMODULE'),
  ('pickle',
   'c:\\users\\thouwers\\appdata\\local\\continuum\\anaconda3\\lib\\pickle.py',
   'PYMODULE'),
  ('pprint',
   'c:\\users\\thouwers\\appdata\\local\\continuum\\anaconda3\\lib\\pprint.py',
   'PYMODULE'),
  ('doctest',
   'c:\\users\\thouwers\\appdata\\local\\continuum\\anaconda3\\lib\\doctest.py',
   'PYMODULE'),
  ('unittest',
   'c:\\users\\thouwers\\appdata\\local\\continuum\\anaconda3\\lib\\unittest\\__init__.py',
   'PYMODULE'),
  ('unittest.signals',
   'c:\\users\\thouwers\\appdata\\local\\continuum\\anaconda3\\lib\\unittest\\signals.py',
   'PYMODULE'),
  ('signal',
   'c:\\users\\thouwers\\appdata\\local\\continuum\\anaconda3\\lib\\signal.py',
   'PYMODULE'),
  ('unittest.main',
   'c:\\users\\thouwers\\appdata\\local\\continuum\\anaconda3\\lib\\unittest\\main.py',
   'PYMODULE'),
  ('unittest.runner',
   'c:\\users\\thouwers\\appdata\\local\\continuum\\anaconda3\\lib\\unittest\\runner.py',
   'PYMODULE'),
  ('unittest.loader',
   'c:\\users\\thouwers\\appdata\\local\\continuum\\anaconda3\\lib\\unittest\\loader.py',
   'PYMODULE'),
  ('fnmatch',
   'c:\\users\\thouwers\\appdata\\local\\continuum\\anaconda3\\lib\\fnmatch.py',
   'PYMODULE'),
  ('posixpath',
   'c:\\users\\thouwers\\appdata\\local\\continuum\\anaconda3\\lib\\posixpath.py',
   'PYMODULE'),
  ('unittest.suite',
   'c:\\users\\thouwers\\appdata\\local\\continuum\\anaconda3\\lib\\unittest\\suite.py',
   'PYMODULE'),
  ('unittest.case',
   'c:\\users\\thouwers\\appdata\\local\\continuum\\anaconda3\\lib\\unittest\\case.py',
   'PYMODULE'),
  ('logging',
   'c:\\users\\thouwers\\appdata\\local\\continuum\\anaconda3\\lib\\logging\\__init__.py',
   'PYMODULE'),
  ('unittest.result',
   'c:\\users\\thouwers\\appdata\\local\\continuum\\anaconda3\\lib\\unittest\\result.py',
   'PYMODULE'),
  ('unittest.util',
   'c:\\users\\thouwers\\appdata\\local\\continuum\\anaconda3\\lib\\unittest\\util.py',
   'PYMODULE'),
  ('pdb',
   'c:\\users\\thouwers\\appdata\\local\\continuum\\anaconda3\\lib\\pdb.py',
   'PYMODULE'),
  ('pydoc',
   'c:\\users\\thouwers\\appdata\\local\\continuum\\anaconda3\\lib\\pydoc.py',
   'PYMODULE'),
  ('webbrowser',
   'c:\\users\\thouwers\\appdata\\local\\continuum\\anaconda3\\lib\\webbrowser.py',
   'PYMODULE'),
  ('socket',
   'c:\\users\\thouwers\\appdata\\local\\continuum\\anaconda3\\lib\\socket.py',
   'PYMODULE'),
  ('selectors',
   'c:\\users\\thouwers\\appdata\\local\\continuum\\anaconda3\\lib\\selectors.py',
   'PYMODULE'),
  ('email.message',
   'c:\\users\\thouwers\\appdata\\local\\continuum\\anaconda3\\lib\\email\\message.py',
   'PYMODULE'),
  ('email.policy',
   'c:\\users\\thouwers\\appdata\\local\\continuum\\anaconda3\\lib\\email\\policy.py',
   'PYMODULE'),
  ('email.contentmanager',
   'c:\\users\\thouwers\\appdata\\local\\continuum\\anaconda3\\lib\\email\\contentmanager.py',
   'PYMODULE'),
  ('email.quoprimime',
   'c:\\users\\thouwers\\appdata\\local\\continuum\\anaconda3\\lib\\email\\quoprimime.py',
   'PYMODULE'),
  ('email.headerregistry',
   'c:\\users\\thouwers\\appdata\\local\\continuum\\anaconda3\\lib\\email\\headerregistry.py',
   'PYMODULE'),
  ('email._header_value_parser',
   'c:\\users\\thouwers\\appdata\\local\\continuum\\anaconda3\\lib\\email\\_header_value_parser.py',
   'PYMODULE'),
  ('urllib',
   'c:\\users\\thouwers\\appdata\\local\\continuum\\anaconda3\\lib\\urllib\\__init__.py',
   'PYMODULE'),
  ('email.iterators',
   'c:\\users\\thouwers\\appdata\\local\\continuum\\anaconda3\\lib\\email\\iterators.py',
   'PYMODULE'),
  ('email.generator',
   'c:\\users\\thouwers\\appdata\\local\\continuum\\anaconda3\\lib\\email\\generator.py',
   'PYMODULE'),
  ('random',
   'c:\\users\\thouwers\\appdata\\local\\continuum\\anaconda3\\lib\\random.py',
   'PYMODULE'),
  ('bisect',
   'c:\\users\\thouwers\\appdata\\local\\continuum\\anaconda3\\lib\\bisect.py',
   'PYMODULE'),
  ('hashlib',
   'c:\\users\\thouwers\\appdata\\local\\continuum\\anaconda3\\lib\\hashlib.py',
   'PYMODULE'),
  ('email._encoded_words',
   'c:\\users\\thouwers\\appdata\\local\\continuum\\anaconda3\\lib\\email\\_encoded_words.py',
   'PYMODULE'),
  ('base64',
   'c:\\users\\thouwers\\appdata\\local\\continuum\\anaconda3\\lib\\base64.py',
   'PYMODULE'),
  ('email.charset',
   'c:\\users\\thouwers\\appdata\\local\\continuum\\anaconda3\\lib\\email\\charset.py',
   'PYMODULE'),
  ('email.encoders',
   'c:\\users\\thouwers\\appdata\\local\\continuum\\anaconda3\\lib\\email\\encoders.py',
   'PYMODULE'),
  ('email.base64mime',
   'c:\\users\\thouwers\\appdata\\local\\continuum\\anaconda3\\lib\\email\\base64mime.py',
   'PYMODULE'),
  ('email._policybase',
   'c:\\users\\thouwers\\appdata\\local\\continuum\\anaconda3\\lib\\email\\_policybase.py',
   'PYMODULE'),
  ('email.header',
   'c:\\users\\thouwers\\appdata\\local\\continuum\\anaconda3\\lib\\email\\header.py',
   'PYMODULE'),
  ('email.errors',
   'c:\\users\\thouwers\\appdata\\local\\continuum\\anaconda3\\lib\\email\\errors.py',
   'PYMODULE'),
  ('email.utils',
   'c:\\users\\thouwers\\appdata\\local\\continuum\\anaconda3\\lib\\email\\utils.py',
   'PYMODULE'),
  ('email._parseaddr',
   'c:\\users\\thouwers\\appdata\\local\\continuum\\anaconda3\\lib\\email\\_parseaddr.py',
   'PYMODULE'),
  ('email',
   'c:\\users\\thouwers\\appdata\\local\\continuum\\anaconda3\\lib\\email\\__init__.py',
   'PYMODULE'),
  ('email.parser',
   'c:\\users\\thouwers\\appdata\\local\\continuum\\anaconda3\\lib\\email\\parser.py',
   'PYMODULE'),
  ('email.feedparser',
   'c:\\users\\thouwers\\appdata\\local\\continuum\\anaconda3\\lib\\email\\feedparser.py',
   'PYMODULE'),
  ('quopri',
   'c:\\users\\thouwers\\appdata\\local\\continuum\\anaconda3\\lib\\quopri.py',
   'PYMODULE'),
  ('uu',
   'c:\\users\\thouwers\\appdata\\local\\continuum\\anaconda3\\lib\\uu.py',
   'PYMODULE'),
  ('optparse',
   'c:\\users\\thouwers\\appdata\\local\\continuum\\anaconda3\\lib\\optparse.py',
   'PYMODULE'),
  ('http.server',
   'c:\\users\\thouwers\\appdata\\local\\continuum\\anaconda3\\lib\\http\\server.py',
   'PYMODULE'),
  ('http',
   'c:\\users\\thouwers\\appdata\\local\\continuum\\anaconda3\\lib\\http\\__init__.py',
   'PYMODULE'),
  ('socketserver',
   'c:\\users\\thouwers\\appdata\\local\\continuum\\anaconda3\\lib\\socketserver.py',
   'PYMODULE'),
  ('mimetypes',
   'c:\\users\\thouwers\\appdata\\local\\continuum\\anaconda3\\lib\\mimetypes.py',
   'PYMODULE'),
  ('http.client',
   'c:\\users\\thouwers\\appdata\\local\\continuum\\anaconda3\\lib\\http\\client.py',
   'PYMODULE'),
  ('ssl',
   'c:\\users\\thouwers\\appdata\\local\\continuum\\anaconda3\\lib\\ssl.py',
   'PYMODULE'),
  ('html',
   'c:\\users\\thouwers\\appdata\\local\\continuum\\anaconda3\\lib\\html\\__init__.py',
   'PYMODULE'),
  ('html.entities',
   'c:\\users\\thouwers\\appdata\\local\\continuum\\anaconda3\\lib\\html\\entities.py',
   'PYMODULE'),
  ('pydoc_data.topics',
   'c:\\users\\thouwers\\appdata\\local\\continuum\\anaconda3\\lib\\pydoc_data\\topics.py',
   'PYMODULE'),
  ('pydoc_data',
   'c:\\users\\thouwers\\appdata\\local\\continuum\\anaconda3\\lib\\pydoc_data\\__init__.py',
   'PYMODULE'),
  ('tty',
   'c:\\users\\thouwers\\appdata\\local\\continuum\\anaconda3\\lib\\tty.py',
   'PYMODULE'),
  ('subprocess',
   'c:\\users\\thouwers\\appdata\\local\\continuum\\anaconda3\\lib\\subprocess.py',
   'PYMODULE'),
  ('urllib.parse',
   'c:\\users\\thouwers\\appdata\\local\\continuum\\anaconda3\\lib\\urllib\\parse.py',
   'PYMODULE'),
  ('platform',
   'c:\\users\\thouwers\\appdata\\local\\continuum\\anaconda3\\lib\\platform.py',
   'PYMODULE'),
  ('plistlib',
   'c:\\users\\thouwers\\appdata\\local\\continuum\\anaconda3\\lib\\plistlib.py',
   'PYMODULE'),
  ('xml.parsers.expat',
   'c:\\users\\thouwers\\appdata\\local\\continuum\\anaconda3\\lib\\xml\\parsers\\expat.py',
   'PYMODULE'),
  ('xml.parsers',
   'c:\\users\\thouwers\\appdata\\local\\continuum\\anaconda3\\lib\\xml\\parsers\\__init__.py',
   'PYMODULE'),
  ('xml',
   'c:\\users\\thouwers\\appdata\\local\\continuum\\anaconda3\\lib\\xml\\__init__.py',
   'PYMODULE'),
  ('xml.sax.expatreader',
   'c:\\users\\thouwers\\appdata\\local\\continuum\\anaconda3\\lib\\xml\\sax\\expatreader.py',
   'PYMODULE'),
  ('xml.sax.saxutils',
   'c:\\users\\thouwers\\appdata\\local\\continuum\\anaconda3\\lib\\xml\\sax\\saxutils.py',
   'PYMODULE'),
  ('urllib.request',
   'c:\\users\\thouwers\\appdata\\local\\continuum\\anaconda3\\lib\\urllib\\request.py',
   'PYMODULE'),
  ('getpass',
   'c:\\users\\thouwers\\appdata\\local\\continuum\\anaconda3\\lib\\getpass.py',
   'PYMODULE'),
  ('nturl2path',
   'c:\\users\\thouwers\\appdata\\local\\continuum\\anaconda3\\lib\\nturl2path.py',
   'PYMODULE'),
  ('ftplib',
   'c:\\users\\thouwers\\appdata\\local\\continuum\\anaconda3\\lib\\ftplib.py',
   'PYMODULE'),
  ('netrc',
   'c:\\users\\thouwers\\appdata\\local\\continuum\\anaconda3\\lib\\netrc.py',
   'PYMODULE'),
  ('http.cookiejar',
   'c:\\users\\thouwers\\appdata\\local\\continuum\\anaconda3\\lib\\http\\cookiejar.py',
   'PYMODULE'),
  ('urllib.response',
   'c:\\users\\thouwers\\appdata\\local\\continuum\\anaconda3\\lib\\urllib\\response.py',
   'PYMODULE'),
  ('urllib.error',
   'c:\\users\\thouwers\\appdata\\local\\continuum\\anaconda3\\lib\\urllib\\error.py',
   'PYMODULE'),
  ('xml.sax',
   'c:\\users\\thouwers\\appdata\\local\\continuum\\anaconda3\\lib\\xml\\sax\\__init__.py',
   'PYMODULE'),
  ('xml.sax.handler',
   'c:\\users\\thouwers\\appdata\\local\\continuum\\anaconda3\\lib\\xml\\sax\\handler.py',
   'PYMODULE'),
  ('xml.sax._exceptions',
   'c:\\users\\thouwers\\appdata\\local\\continuum\\anaconda3\\lib\\xml\\sax\\_exceptions.py',
   'PYMODULE'),
  ('xml.sax.xmlreader',
   'c:\\users\\thouwers\\appdata\\local\\continuum\\anaconda3\\lib\\xml\\sax\\xmlreader.py',
   'PYMODULE'),
  ('pkgutil',
   'c:\\users\\thouwers\\appdata\\local\\continuum\\anaconda3\\lib\\pkgutil.py',
   'PYMODULE'),
  ('runpy',
   'c:\\users\\thouwers\\appdata\\local\\continuum\\anaconda3\\lib\\runpy.py',
   'PYMODULE'),
  ('shlex',
   'c:\\users\\thouwers\\appdata\\local\\continuum\\anaconda3\\lib\\shlex.py',
   'PYMODULE'),
  ('readline',
   'c:\\users\\thouwers\\appdata\\local\\continuum\\anaconda3\\lib\\site-packages\\readline.py',
   'PYMODULE'),
  ('pyreadline.console',
   'c:\\users\\thouwers\\appdata\\local\\continuum\\anaconda3\\lib\\site-packages\\pyreadline\\console\\__init__.py',
   'PYMODULE'),
  ('pyreadline.console.console',
   'c:\\users\\thouwers\\appdata\\local\\continuum\\anaconda3\\lib\\site-packages\\pyreadline\\console\\console.py',
   'PYMODULE'),
  ('pyreadline.console.event',
   'c:\\users\\thouwers\\appdata\\local\\continuum\\anaconda3\\lib\\site-packages\\pyreadline\\console\\event.py',
   'PYMODULE'),
  ('ctypes.wintypes',
   'c:\\users\\thouwers\\appdata\\local\\continuum\\anaconda3\\lib\\ctypes\\wintypes.py',
   'PYMODULE'),
  ('ctypes',
   'c:\\users\\thouwers\\appdata\\local\\continuum\\anaconda3\\lib\\ctypes\\__init__.py',
   'PYMODULE'),
  ('ctypes._endian',
   'c:\\users\\thouwers\\appdata\\local\\continuum\\anaconda3\\lib\\ctypes\\_endian.py',
   'PYMODULE'),
  ('ctypes.util',
   'c:\\users\\thouwers\\appdata\\local\\continuum\\anaconda3\\lib\\ctypes\\util.py',
   'PYMODULE'),
  ('ctypes._aix',
   'c:\\users\\thouwers\\appdata\\local\\continuum\\anaconda3\\lib\\ctypes\\_aix.py',
   'PYMODULE'),
  ('ctypes.macholib.dyld',
   'c:\\users\\thouwers\\appdata\\local\\continuum\\anaconda3\\lib\\ctypes\\macholib\\dyld.py',
   'PYMODULE'),
  ('ctypes.macholib',
   'c:\\users\\thouwers\\appdata\\local\\continuum\\anaconda3\\lib\\ctypes\\macholib\\__init__.py',
   'PYMODULE'),
  ('ctypes.macholib.dylib',
   'c:\\users\\thouwers\\appdata\\local\\continuum\\anaconda3\\lib\\ctypes\\macholib\\dylib.py',
   'PYMODULE'),
  ('ctypes.macholib.framework',
   'c:\\users\\thouwers\\appdata\\local\\continuum\\anaconda3\\lib\\ctypes\\macholib\\framework.py',
   'PYMODULE'),
  ('pyreadline.console.ansi',
   'c:\\users\\thouwers\\appdata\\local\\continuum\\anaconda3\\lib\\site-packages\\pyreadline\\console\\ansi.py',
   'PYMODULE'),
  ('pyreadline.keysyms',
   'c:\\users\\thouwers\\appdata\\local\\continuum\\anaconda3\\lib\\site-packages\\pyreadline\\keysyms\\__init__.py',
   'PYMODULE'),
  ('pyreadline.keysyms.keysyms',
   'c:\\users\\thouwers\\appdata\\local\\continuum\\anaconda3\\lib\\site-packages\\pyreadline\\keysyms\\keysyms.py',
   'PYMODULE'),
  ('pyreadline.keysyms.common',
   'c:\\users\\thouwers\\appdata\\local\\continuum\\anaconda3\\lib\\site-packages\\pyreadline\\keysyms\\common.py',
   'PYMODULE'),
  ('pyreadline.keysyms.ironpython_keysyms',
   'c:\\users\\thouwers\\appdata\\local\\continuum\\anaconda3\\lib\\site-packages\\pyreadline\\keysyms\\ironpython_keysyms.py',
   'PYMODULE'),
  ('pyreadline.keysyms.winconstants',
   'c:\\users\\thouwers\\appdata\\local\\continuum\\anaconda3\\lib\\site-packages\\pyreadline\\keysyms\\winconstants.py',
   'PYMODULE'),
  ('pyreadline.logger',
   'c:\\users\\thouwers\\appdata\\local\\continuum\\anaconda3\\lib\\site-packages\\pyreadline\\logger.py',
   'PYMODULE'),
  ('logging.handlers',
   'c:\\users\\thouwers\\appdata\\local\\continuum\\anaconda3\\lib\\logging\\handlers.py',
   'PYMODULE'),
  ('win32evtlogutil',
   'c:\\users\\thouwers\\appdata\\local\\continuum\\anaconda3\\lib\\site-packages\\win32\\lib\\win32evtlogutil.py',
   'PYMODULE'),
  ('smtplib',
   'c:\\users\\thouwers\\appdata\\local\\continuum\\anaconda3\\lib\\smtplib.py',
   'PYMODULE'),
  ('hmac',
   'c:\\users\\thouwers\\appdata\\local\\continuum\\anaconda3\\lib\\hmac.py',
   'PYMODULE'),
  ('queue',
   'c:\\users\\thouwers\\appdata\\local\\continuum\\anaconda3\\lib\\queue.py',
   'PYMODULE'),
  ('pyreadline.unicode_helper',
   'c:\\users\\thouwers\\appdata\\local\\continuum\\anaconda3\\lib\\site-packages\\pyreadline\\unicode_helper.py',
   'PYMODULE'),
  ('pyreadline.py3k_compat',
   'c:\\users\\thouwers\\appdata\\local\\continuum\\anaconda3\\lib\\site-packages\\pyreadline\\py3k_compat.py',
   'PYMODULE'),
  ('pyreadline.console.ironpython_console',
   'c:\\users\\thouwers\\appdata\\local\\continuum\\anaconda3\\lib\\site-packages\\pyreadline\\console\\ironpython_console.py',
   'PYMODULE'),
  ('pyreadline',
   'c:\\users\\thouwers\\appdata\\local\\continuum\\anaconda3\\lib\\site-packages\\pyreadline\\__init__.py',
   'PYMODULE'),
  ('pyreadline.release',
   'c:\\users\\thouwers\\appdata\\local\\continuum\\anaconda3\\lib\\site-packages\\pyreadline\\release.py',
   'PYMODULE'),
  ('pyreadline.modes',
   'c:\\users\\thouwers\\appdata\\local\\continuum\\anaconda3\\lib\\site-packages\\pyreadline\\modes\\__init__.py',
   'PYMODULE'),
  ('pyreadline.modes.vi',
   'c:\\users\\thouwers\\appdata\\local\\continuum\\anaconda3\\lib\\site-packages\\pyreadline\\modes\\vi.py',
   'PYMODULE'),
  ('pyreadline.lineeditor.history',
   'c:\\users\\thouwers\\appdata\\local\\continuum\\anaconda3\\lib\\site-packages\\pyreadline\\lineeditor\\history.py',
   'PYMODULE'),
  ('pyreadline.lineeditor.lineobj',
   'c:\\users\\thouwers\\appdata\\local\\continuum\\anaconda3\\lib\\site-packages\\pyreadline\\lineeditor\\lineobj.py',
   'PYMODULE'),
  ('pyreadline.lineeditor.wordmatcher',
   'c:\\users\\thouwers\\appdata\\local\\continuum\\anaconda3\\lib\\site-packages\\pyreadline\\lineeditor\\wordmatcher.py',
   'PYMODULE'),
  ('pyreadline.modes.notemacs',
   'c:\\users\\thouwers\\appdata\\local\\continuum\\anaconda3\\lib\\site-packages\\pyreadline\\modes\\notemacs.py',
   'PYMODULE'),
  ('pyreadline.modes.emacs',
   'c:\\users\\thouwers\\appdata\\local\\continuum\\anaconda3\\lib\\site-packages\\pyreadline\\modes\\emacs.py',
   'PYMODULE'),
  ('pyreadline.modes.basemode',
   'c:\\users\\thouwers\\appdata\\local\\continuum\\anaconda3\\lib\\site-packages\\pyreadline\\modes\\basemode.py',
   'PYMODULE'),
  ('pyreadline.error',
   'c:\\users\\thouwers\\appdata\\local\\continuum\\anaconda3\\lib\\site-packages\\pyreadline\\error.py',
   'PYMODULE'),
  ('pyreadline.lineeditor',
   'c:\\users\\thouwers\\appdata\\local\\continuum\\anaconda3\\lib\\site-packages\\pyreadline\\lineeditor\\__init__.py',
   'PYMODULE'),
  ('pyreadline.clipboard',
   'c:\\users\\thouwers\\appdata\\local\\continuum\\anaconda3\\lib\\site-packages\\pyreadline\\clipboard\\__init__.py',
   'PYMODULE'),
  ('pyreadline.clipboard.win32_clipboard',
   'c:\\users\\thouwers\\appdata\\local\\continuum\\anaconda3\\lib\\site-packages\\pyreadline\\clipboard\\win32_clipboard.py',
   'PYMODULE'),
  ('pyreadline.clipboard.no_clipboard',
   'c:\\users\\thouwers\\appdata\\local\\continuum\\anaconda3\\lib\\site-packages\\pyreadline\\clipboard\\no_clipboard.py',
   'PYMODULE'),
  ('pyreadline.clipboard.ironpython_clipboard',
   'c:\\users\\thouwers\\appdata\\local\\continuum\\anaconda3\\lib\\site-packages\\pyreadline\\clipboard\\ironpython_clipboard.py',
   'PYMODULE'),
  ('pyreadline.rlmain',
   'c:\\users\\thouwers\\appdata\\local\\continuum\\anaconda3\\lib\\site-packages\\pyreadline\\rlmain.py',
   'PYMODULE'),
  ('code',
   'c:\\users\\thouwers\\appdata\\local\\continuum\\anaconda3\\lib\\code.py',
   'PYMODULE'),
  ('codeop',
   'c:\\users\\thouwers\\appdata\\local\\continuum\\anaconda3\\lib\\codeop.py',
   'PYMODULE'),
  ('dis',
   'c:\\users\\thouwers\\appdata\\local\\continuum\\anaconda3\\lib\\dis.py',
   'PYMODULE'),
  ('opcode',
   'c:\\users\\thouwers\\appdata\\local\\continuum\\anaconda3\\lib\\opcode.py',
   'PYMODULE'),
  ('bdb',
   'c:\\users\\thouwers\\appdata\\local\\continuum\\anaconda3\\lib\\bdb.py',
   'PYMODULE'),
  ('cmd',
   'c:\\users\\thouwers\\appdata\\local\\continuum\\anaconda3\\lib\\cmd.py',
   'PYMODULE'),
  ('inspect',
   'c:\\users\\thouwers\\appdata\\local\\continuum\\anaconda3\\lib\\inspect.py',
   'PYMODULE'),
  ('ast',
   'c:\\users\\thouwers\\appdata\\local\\continuum\\anaconda3\\lib\\ast.py',
   'PYMODULE'),
  ('difflib',
   'c:\\users\\thouwers\\appdata\\local\\continuum\\anaconda3\\lib\\difflib.py',
   'PYMODULE'),
  ('__future__',
   'c:\\users\\thouwers\\appdata\\local\\continuum\\anaconda3\\lib\\__future__.py',
   'PYMODULE'),
  ('_compat_pickle',
   'c:\\users\\thouwers\\appdata\\local\\continuum\\anaconda3\\lib\\_compat_pickle.py',
   'PYMODULE'),
  ('glob',
   'c:\\users\\thouwers\\appdata\\local\\continuum\\anaconda3\\lib\\glob.py',
   'PYMODULE'),
  ('win32com.client.selecttlb',
   'c:\\users\\thouwers\\appdata\\local\\continuum\\anaconda3\\lib\\site-packages\\win32com\\client\\selecttlb.py',
   'PYMODULE'),
  ('pywin.dialogs.list',
   'c:\\users\\thouwers\\appdata\\local\\continuum\\anaconda3\\lib\\site-packages\\Pythonwin\\pywin\\dialogs\\list.py',
   'PYMODULE'),
  ('commctrl',
   'c:\\users\\thouwers\\appdata\\local\\continuum\\anaconda3\\lib\\site-packages\\win32\\lib\\commctrl.py',
   'PYMODULE'),
  ('win32com.client.genpy',
   'c:\\users\\thouwers\\appdata\\local\\continuum\\anaconda3\\lib\\site-packages\\win32com\\client\\genpy.py',
   'PYMODULE'),
  ('win32com.client.CLSIDToClass',
   'c:\\users\\thouwers\\appdata\\local\\continuum\\anaconda3\\lib\\site-packages\\win32com\\client\\CLSIDToClass.py',
   'PYMODULE'),
  ('win32com.client.dynamic',
   'c:\\users\\thouwers\\appdata\\local\\continuum\\anaconda3\\lib\\site-packages\\win32com\\client\\dynamic.py',
   'PYMODULE'),
  ('win32com.client.build',
   'c:\\users\\thouwers\\appdata\\local\\continuum\\anaconda3\\lib\\site-packages\\win32com\\client\\build.py',
   'PYMODULE'),
  ('pywintypes',
   'c:\\users\\thouwers\\appdata\\local\\continuum\\anaconda3\\lib\\site-packages\\win32\\lib\\pywintypes.py',
   'PYMODULE'),
  ('distutils.sysconfig',
   'c:\\users\\thouwers\\appdata\\local\\continuum\\anaconda3\\lib\\distutils\\sysconfig.py',
   'PYMODULE'),
  ('distutils',
   'c:\\users\\thouwers\\appdata\\local\\continuum\\anaconda3\\lib\\distutils\\__init__.py',
   'PYMODULE'),
  ('distutils.archive_util',
   'c:\\users\\thouwers\\appdata\\local\\continuum\\anaconda3\\lib\\distutils\\archive_util.py',
   'PYMODULE'),
  ('tarfile',
   'c:\\users\\thouwers\\appdata\\local\\continuum\\anaconda3\\lib\\tarfile.py',
   'PYMODULE'),
  ('gzip',
   'c:\\users\\thouwers\\appdata\\local\\continuum\\anaconda3\\lib\\gzip.py',
   'PYMODULE'),
  ('distutils.dir_util',
   'c:\\users\\thouwers\\appdata\\local\\continuum\\anaconda3\\lib\\distutils\\dir_util.py',
   'PYMODULE'),
  ('distutils.file_util',
   'c:\\users\\thouwers\\appdata\\local\\continuum\\anaconda3\\lib\\distutils\\file_util.py',
   'PYMODULE'),
  ('distutils.dep_util',
   'c:\\users\\thouwers\\appdata\\local\\continuum\\anaconda3\\lib\\distutils\\dep_util.py',
   'PYMODULE'),
  ('distutils.spawn',
   'c:\\users\\thouwers\\appdata\\local\\continuum\\anaconda3\\lib\\distutils\\spawn.py',
   'PYMODULE'),
  ('distutils.debug',
   'c:\\users\\thouwers\\appdata\\local\\continuum\\anaconda3\\lib\\distutils\\debug.py',
   'PYMODULE'),
  ('distutils.log',
   'c:\\users\\thouwers\\appdata\\local\\continuum\\anaconda3\\lib\\distutils\\log.py',
   'PYMODULE'),
  ('distutils.text_file',
   'c:\\users\\thouwers\\appdata\\local\\continuum\\anaconda3\\lib\\distutils\\text_file.py',
   'PYMODULE'),
  ('_osx_support',
   'c:\\users\\thouwers\\appdata\\local\\continuum\\anaconda3\\lib\\_osx_support.py',
   'PYMODULE'),
  ('distutils.errors',
   'c:\\users\\thouwers\\appdata\\local\\continuum\\anaconda3\\lib\\distutils\\errors.py',
   'PYMODULE'),
  ('win32com.server',
   'c:\\users\\thouwers\\appdata\\local\\continuum\\anaconda3\\lib\\site-packages\\win32com\\server\\__init__.py',
   'PYMODULE'),
  ('win32com.universal',
   'c:\\users\\thouwers\\appdata\\local\\continuum\\anaconda3\\lib\\site-packages\\win32com\\universal.py',
   'PYMODULE'),
  ('win32com.client.util',
   'c:\\users\\thouwers\\appdata\\local\\continuum\\anaconda3\\lib\\site-packages\\win32com\\client\\util.py',
   'PYMODULE'),
  ('imp',
   'c:\\users\\thouwers\\appdata\\local\\continuum\\anaconda3\\lib\\imp.py',
   'PYMODULE'),
  ('pythoncom',
   'c:\\users\\thouwers\\appdata\\local\\continuum\\anaconda3\\lib\\site-packages\\pythoncom.py',
   'PYMODULE'),
  ('tempfile',
   'c:\\users\\thouwers\\appdata\\local\\continuum\\anaconda3\\lib\\tempfile.py',
   'PYMODULE'),
  ('shutil',
   'c:\\users\\thouwers\\appdata\\local\\continuum\\anaconda3\\lib\\shutil.py',
   'PYMODULE'),
  ('pkg_resources',
   'c:\\users\\thouwers\\appdata\\local\\continuum\\anaconda3\\lib\\site-packages\\pkg_resources\\__init__.py',
   'PYMODULE'),
  ('pkg_resources._vendor.six',
   'c:\\users\\thouwers\\appdata\\local\\continuum\\anaconda3\\lib\\site-packages\\pkg_resources\\_vendor\\six.py',
   'PYMODULE'),
  ('pkg_resources._vendor.packaging',
   'c:\\users\\thouwers\\appdata\\local\\continuum\\anaconda3\\lib\\site-packages\\pkg_resources\\_vendor\\packaging\\__init__.py',
   'PYMODULE'),
  ('pkg_resources._vendor.packaging._structures',
   'c:\\users\\thouwers\\appdata\\local\\continuum\\anaconda3\\lib\\site-packages\\pkg_resources\\_vendor\\packaging\\_structures.py',
   'PYMODULE'),
  ('pkg_resources._vendor.packaging.__about__',
   'c:\\users\\thouwers\\appdata\\local\\continuum\\anaconda3\\lib\\site-packages\\pkg_resources\\_vendor\\packaging\\__about__.py',
   'PYMODULE'),
  ('pkg_resources._vendor.packaging.utils',
   'c:\\users\\thouwers\\appdata\\local\\continuum\\anaconda3\\lib\\site-packages\\pkg_resources\\_vendor\\packaging\\utils.py',
   'PYMODULE'),
  ('pkg_resources._vendor.packaging._compat',
   'c:\\users\\thouwers\\appdata\\local\\continuum\\anaconda3\\lib\\site-packages\\pkg_resources\\_vendor\\packaging\\_compat.py',
   'PYMODULE'),
  ('pkg_resources._vendor',
   'c:\\users\\thouwers\\appdata\\local\\continuum\\anaconda3\\lib\\site-packages\\pkg_resources\\_vendor\\__init__.py',
   'PYMODULE'),
  ('pkg_resources._vendor.packaging.requirements',
   'c:\\users\\thouwers\\appdata\\local\\continuum\\anaconda3\\lib\\site-packages\\pkg_resources\\_vendor\\packaging\\requirements.py',
   'PYMODULE'),
  ('pkg_resources._vendor.appdirs',
   'c:\\users\\thouwers\\appdata\\local\\continuum\\anaconda3\\lib\\site-packages\\pkg_resources\\_vendor\\appdirs.py',
   'PYMODULE'),
  ('win32com.shell.shellcon',
   'c:\\users\\thouwers\\appdata\\local\\continuum\\anaconda3\\lib\\site-packages\\win32comext\\shell\\shellcon.py',
   'PYMODULE'),
  ('win32com.shell',
   'c:\\users\\thouwers\\appdata\\local\\continuum\\anaconda3\\lib\\site-packages\\win32comext\\shell\\__init__.py',
   'PYMODULE'),
  ('pkg_resources._vendor.packaging.version',
   'c:\\users\\thouwers\\appdata\\local\\continuum\\anaconda3\\lib\\site-packages\\pkg_resources\\_vendor\\packaging\\version.py',
   'PYMODULE'),
  ('pkg_resources._vendor.packaging.specifiers',
   'c:\\users\\thouwers\\appdata\\local\\continuum\\anaconda3\\lib\\site-packages\\pkg_resources\\_vendor\\packaging\\specifiers.py',
   'PYMODULE'),
  ('pkg_resources._vendor.packaging.markers',
   'c:\\users\\thouwers\\appdata\\local\\continuum\\anaconda3\\lib\\site-packages\\pkg_resources\\_vendor\\packaging\\markers.py',
   'PYMODULE'),
  ('pkg_resources._vendor.pyparsing',
   'c:\\users\\thouwers\\appdata\\local\\continuum\\anaconda3\\lib\\site-packages\\pkg_resources\\_vendor\\pyparsing.py',
   'PYMODULE'),
  ('uuid',
   'c:\\users\\thouwers\\appdata\\local\\continuum\\anaconda3\\lib\\uuid.py',
   'PYMODULE'),
  ('netbios',
   'c:\\users\\thouwers\\appdata\\local\\continuum\\anaconda3\\lib\\site-packages\\win32\\lib\\netbios.py',
   'PYMODULE'),
  ('sysconfig',
   'c:\\users\\thouwers\\appdata\\local\\continuum\\anaconda3\\lib\\sysconfig.py',
   'PYMODULE'),
  ('pkg_resources.py31compat',
   'c:\\users\\thouwers\\appdata\\local\\continuum\\anaconda3\\lib\\site-packages\\pkg_resources\\py31compat.py',
   'PYMODULE'),
  ('pkg_resources.extern',
   'c:\\users\\thouwers\\appdata\\local\\continuum\\anaconda3\\lib\\site-packages\\pkg_resources\\extern\\__init__.py',
   'PYMODULE'),
  ('multiprocessing.popen_fork',
   'c:\\users\\thouwers\\appdata\\local\\continuum\\anaconda3\\lib\\multiprocessing\\popen_fork.py',
   'PYMODULE'),
  ('multiprocessing.connection',
   'c:\\users\\thouwers\\appdata\\local\\continuum\\anaconda3\\lib\\multiprocessing\\connection.py',
   'PYMODULE'),
  ('multiprocessing.resource_sharer',
   'c:\\users\\thouwers\\appdata\\local\\continuum\\anaconda3\\lib\\multiprocessing\\resource_sharer.py',
   'PYMODULE'),
  ('multiprocessing.process',
   'c:\\users\\thouwers\\appdata\\local\\continuum\\anaconda3\\lib\\multiprocessing\\process.py',
   'PYMODULE'),
  ('xmlrpc.client',
   'c:\\users\\thouwers\\appdata\\local\\continuum\\anaconda3\\lib\\xmlrpc\\client.py',
   'PYMODULE'),
  ('xmlrpc',
   'c:\\users\\thouwers\\appdata\\local\\continuum\\anaconda3\\lib\\xmlrpc\\__init__.py',
   'PYMODULE'),
  ('decimal',
   'c:\\users\\thouwers\\appdata\\local\\continuum\\anaconda3\\lib\\decimal.py',
   'PYMODULE'),
  ('_pydecimal',
   'c:\\users\\thouwers\\appdata\\local\\continuum\\anaconda3\\lib\\_pydecimal.py',
   'PYMODULE'),
  ('contextvars',
   'c:\\users\\thouwers\\appdata\\local\\continuum\\anaconda3\\lib\\contextvars.py',
   'PYMODULE'),
  ('numbers',
   'c:\\users\\thouwers\\appdata\\local\\continuum\\anaconda3\\lib\\numbers.py',
   'PYMODULE'),
  ('multiprocessing.context',
   'c:\\users\\thouwers\\appdata\\local\\continuum\\anaconda3\\lib\\multiprocessing\\context.py',
   'PYMODULE'),
  ('multiprocessing.popen_forkserver',
   'c:\\users\\thouwers\\appdata\\local\\continuum\\anaconda3\\lib\\multiprocessing\\popen_forkserver.py',
   'PYMODULE'),
  ('multiprocessing.popen_spawn_posix',
   'c:\\users\\thouwers\\appdata\\local\\continuum\\anaconda3\\lib\\multiprocessing\\popen_spawn_posix.py',
   'PYMODULE'),
  ('multiprocessing.semaphore_tracker',
   'c:\\users\\thouwers\\appdata\\local\\continuum\\anaconda3\\lib\\multiprocessing\\semaphore_tracker.py',
   'PYMODULE'),
  ('multiprocessing.forkserver',
   'c:\\users\\thouwers\\appdata\\local\\continuum\\anaconda3\\lib\\multiprocessing\\forkserver.py',
   'PYMODULE'),
  ('multiprocessing.sharedctypes',
   'c:\\users\\thouwers\\appdata\\local\\continuum\\anaconda3\\lib\\multiprocessing\\sharedctypes.py',
   'PYMODULE'),
  ('multiprocessing.heap',
   'c:\\users\\thouwers\\appdata\\local\\continuum\\anaconda3\\lib\\multiprocessing\\heap.py',
   'PYMODULE'),
  ('multiprocessing.pool',
   'c:\\users\\thouwers\\appdata\\local\\continuum\\anaconda3\\lib\\multiprocessing\\pool.py',
   'PYMODULE'),
  ('multiprocessing.dummy',
   'c:\\users\\thouwers\\appdata\\local\\continuum\\anaconda3\\lib\\multiprocessing\\dummy\\__init__.py',
   'PYMODULE'),
  ('multiprocessing.dummy.connection',
   'c:\\users\\thouwers\\appdata\\local\\continuum\\anaconda3\\lib\\multiprocessing\\dummy\\connection.py',
   'PYMODULE'),
  ('multiprocessing.queues',
   'c:\\users\\thouwers\\appdata\\local\\continuum\\anaconda3\\lib\\multiprocessing\\queues.py',
   'PYMODULE'),
  ('multiprocessing.synchronize',
   'c:\\users\\thouwers\\appdata\\local\\continuum\\anaconda3\\lib\\multiprocessing\\synchronize.py',
   'PYMODULE'),
  ('multiprocessing.managers',
   'c:\\users\\thouwers\\appdata\\local\\continuum\\anaconda3\\lib\\multiprocessing\\managers.py',
   'PYMODULE'),
  ('multiprocessing.reduction',
   'c:\\users\\thouwers\\appdata\\local\\continuum\\anaconda3\\lib\\multiprocessing\\reduction.py',
   'PYMODULE'),
  ('multiprocessing.util',
   'c:\\users\\thouwers\\appdata\\local\\continuum\\anaconda3\\lib\\multiprocessing\\util.py',
   'PYMODULE'),
  ('multiprocessing.popen_spawn_win32',
   'c:\\users\\thouwers\\appdata\\local\\continuum\\anaconda3\\lib\\multiprocessing\\popen_spawn_win32.py',
   'PYMODULE'),
  ('multiprocessing.spawn',
   'c:\\users\\thouwers\\appdata\\local\\continuum\\anaconda3\\lib\\multiprocessing\\spawn.py',
   'PYMODULE'),
  ('multiprocessing',
   'c:\\users\\thouwers\\appdata\\local\\continuum\\anaconda3\\lib\\multiprocessing\\__init__.py',
   'PYMODULE'),
  ('typing',
   'c:\\users\\thouwers\\appdata\\local\\continuum\\anaconda3\\lib\\typing.py',
   'PYMODULE'),
  ('stringprep',
   'c:\\users\\thouwers\\appdata\\local\\continuum\\anaconda3\\lib\\stringprep.py',
   'PYMODULE'),
  ('_py_abc',
   'c:\\users\\thouwers\\appdata\\local\\continuum\\anaconda3\\lib\\_py_abc.py',
   'PYMODULE'),
  ('tracemalloc',
   'c:\\users\\thouwers\\appdata\\local\\continuum\\anaconda3\\lib\\tracemalloc.py',
   'PYMODULE'),
  ('pptx',
   'c:\\users\\thouwers\\appdata\\local\\continuum\\anaconda3\\lib\\site-packages\\pptx\\__init__.py',
   'PYMODULE'),
  ('pptx.parts.slide',
   'c:\\users\\thouwers\\appdata\\local\\continuum\\anaconda3\\lib\\site-packages\\pptx\\parts\\slide.py',
   'PYMODULE'),
  ('pptx.parts',
   'c:\\users\\thouwers\\appdata\\local\\continuum\\anaconda3\\lib\\site-packages\\pptx\\parts\\__init__.py',
   'PYMODULE'),
  ('pptx.util',
   'c:\\users\\thouwers\\appdata\\local\\continuum\\anaconda3\\lib\\site-packages\\pptx\\util.py',
   'PYMODULE'),
  ('pptx.slide',
   'c:\\users\\thouwers\\appdata\\local\\continuum\\anaconda3\\lib\\site-packages\\pptx\\slide.py',
   'PYMODULE'),
  ('pptx.shared',
   'c:\\users\\thouwers\\appdata\\local\\continuum\\anaconda3\\lib\\site-packages\\pptx\\shared.py',
   'PYMODULE'),
  ('pptx.shapes.shapetree',
   'c:\\users\\thouwers\\appdata\\local\\continuum\\anaconda3\\lib\\site-packages\\pptx\\shapes\\shapetree.py',
   'PYMODULE'),
  ('pptx.shapes.placeholder',
   'c:\\users\\thouwers\\appdata\\local\\continuum\\anaconda3\\lib\\site-packages\\pptx\\shapes\\placeholder.py',
   'PYMODULE'),
  ('pptx.shapes.picture',
   'c:\\users\\thouwers\\appdata\\local\\continuum\\anaconda3\\lib\\site-packages\\pptx\\shapes\\picture.py',
   'PYMODULE'),
  ('pptx.dml.line',
   'c:\\users\\thouwers\\appdata\\local\\continuum\\anaconda3\\lib\\site-packages\\pptx\\dml\\line.py',
   'PYMODULE'),
  ('pptx.dml',
   'c:\\users\\thouwers\\appdata\\local\\continuum\\anaconda3\\lib\\site-packages\\pptx\\dml\\__init__.py',
   'PYMODULE'),
  ('pptx.enum.dml',
   'c:\\users\\thouwers\\appdata\\local\\continuum\\anaconda3\\lib\\site-packages\\pptx\\enum\\dml.py',
   'PYMODULE'),
  ('pptx.enum',
   'c:\\users\\thouwers\\appdata\\local\\continuum\\anaconda3\\lib\\site-packages\\pptx\\enum\\__init__.py',
   'PYMODULE'),
  ('pptx.enum.base',
   'c:\\users\\thouwers\\appdata\\local\\continuum\\anaconda3\\lib\\site-packages\\pptx\\enum\\base.py',
   'PYMODULE'),
  ('pptx.shapes.group',
   'c:\\users\\thouwers\\appdata\\local\\continuum\\anaconda3\\lib\\site-packages\\pptx\\shapes\\group.py',
   'PYMODULE'),
  ('pptx.dml.effect',
   'c:\\users\\thouwers\\appdata\\local\\continuum\\anaconda3\\lib\\site-packages\\pptx\\dml\\effect.py',
   'PYMODULE'),
  ('pptx.shapes',
   'c:\\users\\thouwers\\appdata\\local\\continuum\\anaconda3\\lib\\site-packages\\pptx\\shapes\\__init__.py',
   'PYMODULE'),
  ('pptx.shapes.graphfrm',
   'c:\\users\\thouwers\\appdata\\local\\continuum\\anaconda3\\lib\\site-packages\\pptx\\shapes\\graphfrm.py',
   'PYMODULE'),
  ('pptx.table',
   'c:\\users\\thouwers\\appdata\\local\\continuum\\anaconda3\\lib\\site-packages\\pptx\\table.py',
   'PYMODULE'),
  ('pptx.text.text',
   'c:\\users\\thouwers\\appdata\\local\\continuum\\anaconda3\\lib\\site-packages\\pptx\\text\\text.py',
   'PYMODULE'),
  ('pptx.text',
   'c:\\users\\thouwers\\appdata\\local\\continuum\\anaconda3\\lib\\site-packages\\pptx\\text\\__init__.py',
   'PYMODULE'),
  ('pptx.text.layout',
   'c:\\users\\thouwers\\appdata\\local\\continuum\\anaconda3\\lib\\site-packages\\pptx\\text\\layout.py',
   'PYMODULE'),
  ('PIL.ImageFont',
   'c:\\users\\thouwers\\appdata\\local\\continuum\\anaconda3\\lib\\site-packages\\PIL\\ImageFont.py',
   'PYMODULE'),
  ('PIL._util',
   'c:\\users\\thouwers\\appdata\\local\\continuum\\anaconda3\\lib\\site-packages\\PIL\\_util.py',
   'PYMODULE'),
  ('pathlib',
   'c:\\users\\thouwers\\appdata\\local\\continuum\\anaconda3\\lib\\pathlib.py',
   'PYMODULE'),
  ('PIL.Image',
   'c:\\users\\thouwers\\appdata\\local\\continuum\\anaconda3\\lib\\site-packages\\PIL\\Image.py',
   'PYMODULE'),
  ('PIL.XVThumbImagePlugin',
   'c:\\users\\thouwers\\appdata\\local\\continuum\\anaconda3\\lib\\site-packages\\PIL\\XVThumbImagePlugin.py',
   'PYMODULE'),
  ('PIL.ImageFile',
   'c:\\users\\thouwers\\appdata\\local\\continuum\\anaconda3\\lib\\site-packages\\PIL\\ImageFile.py',
   'PYMODULE'),
  ('PIL.IcoImagePlugin',
   'c:\\users\\thouwers\\appdata\\local\\continuum\\anaconda3\\lib\\site-packages\\PIL\\IcoImagePlugin.py',
   'PYMODULE'),
  ('PIL.EpsImagePlugin',
   'c:\\users\\thouwers\\appdata\\local\\continuum\\anaconda3\\lib\\site-packages\\PIL\\EpsImagePlugin.py',
   'PYMODULE'),
  ('PIL.DcxImagePlugin',
   'c:\\users\\thouwers\\appdata\\local\\continuum\\anaconda3\\lib\\site-packages\\PIL\\DcxImagePlugin.py',
   'PYMODULE'),
  ('PIL.FitsStubImagePlugin',
   'c:\\users\\thouwers\\appdata\\local\\continuum\\anaconda3\\lib\\site-packages\\PIL\\FitsStubImagePlugin.py',
   'PYMODULE'),
  ('PIL.BlpImagePlugin',
   'c:\\users\\thouwers\\appdata\\local\\continuum\\anaconda3\\lib\\site-packages\\PIL\\BlpImagePlugin.py',
   'PYMODULE'),
  ('PIL.Jpeg2KImagePlugin',
   'c:\\users\\thouwers\\appdata\\local\\continuum\\anaconda3\\lib\\site-packages\\PIL\\Jpeg2KImagePlugin.py',
   'PYMODULE'),
  ('PIL.FpxImagePlugin',
   'c:\\users\\thouwers\\appdata\\local\\continuum\\anaconda3\\lib\\site-packages\\PIL\\FpxImagePlugin.py',
   'PYMODULE'),
  ('olefile',
   'c:\\users\\thouwers\\appdata\\local\\continuum\\anaconda3\\lib\\site-packages\\olefile\\__init__.py',
   'PYMODULE'),
  ('olefile.olefile',
   'c:\\users\\thouwers\\appdata\\local\\continuum\\anaconda3\\lib\\site-packages\\olefile\\olefile.py',
   'PYMODULE'),
  ('PIL.PcdImagePlugin',
   'c:\\users\\thouwers\\appdata\\local\\continuum\\anaconda3\\lib\\site-packages\\PIL\\PcdImagePlugin.py',
   'PYMODULE'),
  ('PIL.SgiImagePlugin',
   'c:\\users\\thouwers\\appdata\\local\\continuum\\anaconda3\\lib\\site-packages\\PIL\\SgiImagePlugin.py',
   'PYMODULE'),
  ('PIL.MicImagePlugin',
   'c:\\users\\thouwers\\appdata\\local\\continuum\\anaconda3\\lib\\site-packages\\PIL\\MicImagePlugin.py',
   'PYMODULE'),
  ('PIL.PalmImagePlugin',
   'c:\\users\\thouwers\\appdata\\local\\continuum\\anaconda3\\lib\\site-packages\\PIL\\PalmImagePlugin.py',
   'PYMODULE'),
  ('PIL.MspImagePlugin',
   'c:\\users\\thouwers\\appdata\\local\\continuum\\anaconda3\\lib\\site-packages\\PIL\\MspImagePlugin.py',
   'PYMODULE'),
  ('PIL.MpegImagePlugin',
   'c:\\users\\thouwers\\appdata\\local\\continuum\\anaconda3\\lib\\site-packages\\PIL\\MpegImagePlugin.py',
   'PYMODULE'),
  ('PIL.IcnsImagePlugin',
   'c:\\users\\thouwers\\appdata\\local\\continuum\\anaconda3\\lib\\site-packages\\PIL\\IcnsImagePlugin.py',
   'PYMODULE'),
  ('PIL.PdfImagePlugin',
   'c:\\users\\thouwers\\appdata\\local\\continuum\\anaconda3\\lib\\site-packages\\PIL\\PdfImagePlugin.py',
   'PYMODULE'),
  ('PIL.PdfParser',
   'c:\\users\\thouwers\\appdata\\local\\continuum\\anaconda3\\lib\\site-packages\\PIL\\PdfParser.py',
   'PYMODULE'),
  ('PIL.ImageSequence',
   'c:\\users\\thouwers\\appdata\\local\\continuum\\anaconda3\\lib\\site-packages\\PIL\\ImageSequence.py',
   'PYMODULE'),
  ('PIL.PcxImagePlugin',
   'c:\\users\\thouwers\\appdata\\local\\continuum\\anaconda3\\lib\\site-packages\\PIL\\PcxImagePlugin.py',
   'PYMODULE'),
  ('PIL.DdsImagePlugin',
   'c:\\users\\thouwers\\appdata\\local\\continuum\\anaconda3\\lib\\site-packages\\PIL\\DdsImagePlugin.py',
   'PYMODULE'),
  ('PIL.FtexImagePlugin',
   'c:\\users\\thouwers\\appdata\\local\\continuum\\anaconda3\\lib\\site-packages\\PIL\\FtexImagePlugin.py',
   'PYMODULE'),
  ('PIL.McIdasImagePlugin',
   'c:\\users\\thouwers\\appdata\\local\\continuum\\anaconda3\\lib\\site-packages\\PIL\\McIdasImagePlugin.py',
   'PYMODULE'),
  ('PIL.ImtImagePlugin',
   'c:\\users\\thouwers\\appdata\\local\\continuum\\anaconda3\\lib\\site-packages\\PIL\\ImtImagePlugin.py',
   'PYMODULE'),
  ('PIL.CurImagePlugin',
   'c:\\users\\thouwers\\appdata\\local\\continuum\\anaconda3\\lib\\site-packages\\PIL\\CurImagePlugin.py',
   'PYMODULE'),
  ('PIL.PixarImagePlugin',
   'c:\\users\\thouwers\\appdata\\local\\continuum\\anaconda3\\lib\\site-packages\\PIL\\PixarImagePlugin.py',
   'PYMODULE'),
  ('PIL.GbrImagePlugin',
   'c:\\users\\thouwers\\appdata\\local\\continuum\\anaconda3\\lib\\site-packages\\PIL\\GbrImagePlugin.py',
   'PYMODULE'),
  ('PIL.SunImagePlugin',
   'c:\\users\\thouwers\\appdata\\local\\continuum\\anaconda3\\lib\\site-packages\\PIL\\SunImagePlugin.py',
   'PYMODULE'),
  ('PIL.TgaImagePlugin',
   'c:\\users\\thouwers\\appdata\\local\\continuum\\anaconda3\\lib\\site-packages\\PIL\\TgaImagePlugin.py',
   'PYMODULE'),
  ('PIL.ImImagePlugin',
   'c:\\users\\thouwers\\appdata\\local\\continuum\\anaconda3\\lib\\site-packages\\PIL\\ImImagePlugin.py',
   'PYMODULE'),
  ('PIL.FliImagePlugin',
   'c:\\users\\thouwers\\appdata\\local\\continuum\\anaconda3\\lib\\site-packages\\PIL\\FliImagePlugin.py',
   'PYMODULE'),
  ('PIL.WmfImagePlugin',
   'c:\\users\\thouwers\\appdata\\local\\continuum\\anaconda3\\lib\\site-packages\\PIL\\WmfImagePlugin.py',
   'PYMODULE'),
  ('PIL.Hdf5StubImagePlugin',
   'c:\\users\\thouwers\\appdata\\local\\continuum\\anaconda3\\lib\\site-packages\\PIL\\Hdf5StubImagePlugin.py',
   'PYMODULE'),
  ('PIL.MpoImagePlugin',
   'c:\\users\\thouwers\\appdata\\local\\continuum\\anaconda3\\lib\\site-packages\\PIL\\MpoImagePlugin.py',
   'PYMODULE'),
  ('PIL.XbmImagePlugin',
   'c:\\users\\thouwers\\appdata\\local\\continuum\\anaconda3\\lib\\site-packages\\PIL\\XbmImagePlugin.py',
   'PYMODULE'),
  ('PIL.GribStubImagePlugin',
   'c:\\users\\thouwers\\appdata\\local\\continuum\\anaconda3\\lib\\site-packages\\PIL\\GribStubImagePlugin.py',
   'PYMODULE'),
  ('PIL.WebPImagePlugin',
   'c:\\users\\thouwers\\appdata\\local\\continuum\\anaconda3\\lib\\site-packages\\PIL\\WebPImagePlugin.py',
   'PYMODULE'),
  ('PIL.SpiderImagePlugin',
   'c:\\users\\thouwers\\appdata\\local\\continuum\\anaconda3\\lib\\site-packages\\PIL\\SpiderImagePlugin.py',
   'PYMODULE'),
  ('PIL.ImageTk',
   'c:\\users\\thouwers\\appdata\\local\\continuum\\anaconda3\\lib\\site-packages\\PIL\\ImageTk.py',
   'PYMODULE'),
  ('PIL.PsdImagePlugin',
   'c:\\users\\thouwers\\appdata\\local\\continuum\\anaconda3\\lib\\site-packages\\PIL\\PsdImagePlugin.py',
   'PYMODULE'),
  ('PIL.BufrStubImagePlugin',
   'c:\\users\\thouwers\\appdata\\local\\continuum\\anaconda3\\lib\\site-packages\\PIL\\BufrStubImagePlugin.py',
   'PYMODULE'),
  ('PIL.XpmImagePlugin',
   'c:\\users\\thouwers\\appdata\\local\\continuum\\anaconda3\\lib\\site-packages\\PIL\\XpmImagePlugin.py',
   'PYMODULE'),
  ('PIL.IptcImagePlugin',
   'c:\\users\\thouwers\\appdata\\local\\continuum\\anaconda3\\lib\\site-packages\\PIL\\IptcImagePlugin.py',
   'PYMODULE'),
  ('PIL.TiffImagePlugin',
   'c:\\users\\thouwers\\appdata\\local\\continuum\\anaconda3\\lib\\site-packages\\PIL\\TiffImagePlugin.py',
   'PYMODULE'),
  ('fractions',
   'c:\\users\\thouwers\\appdata\\local\\continuum\\anaconda3\\lib\\fractions.py',
   'PYMODULE'),
  ('distutils.version',
   'c:\\users\\thouwers\\appdata\\local\\continuum\\anaconda3\\lib\\distutils\\version.py',
   'PYMODULE'),
  ('PIL.ImageShow',
   'c:\\users\\thouwers\\appdata\\local\\continuum\\anaconda3\\lib\\site-packages\\PIL\\ImageShow.py',
   'PYMODULE'),
  ('pipes',
   'c:\\users\\thouwers\\appdata\\local\\continuum\\anaconda3\\lib\\pipes.py',
   'PYMODULE'),
  ('PIL.ImageQt',
   'c:\\users\\thouwers\\appdata\\local\\continuum\\anaconda3\\lib\\site-packages\\PIL\\ImageQt.py',
   'PYMODULE'),
  ('PIL.ImageColor',
   'c:\\users\\thouwers\\appdata\\local\\continuum\\anaconda3\\lib\\site-packages\\PIL\\ImageColor.py',
   'PYMODULE'),
  ('colorsys',
   'c:\\users\\thouwers\\appdata\\local\\continuum\\anaconda3\\lib\\colorsys.py',
   'PYMODULE'),
  ('PIL.ImageFilter',
   'c:\\users\\thouwers\\appdata\\local\\continuum\\anaconda3\\lib\\site-packages\\PIL\\ImageFilter.py',
   'PYMODULE'),
  ('PIL.PyAccess',
   'c:\\users\\thouwers\\appdata\\local\\continuum\\anaconda3\\lib\\site-packages\\PIL\\PyAccess.py',
   'PYMODULE'),
  ('PIL.ImagePalette',
   'c:\\users\\thouwers\\appdata\\local\\continuum\\anaconda3\\lib\\site-packages\\PIL\\ImagePalette.py',
   'PYMODULE'),
  ('PIL.PaletteFile',
   'c:\\users\\thouwers\\appdata\\local\\continuum\\anaconda3\\lib\\site-packages\\PIL\\PaletteFile.py',
   'PYMODULE'),
  ('PIL.GimpPaletteFile',
   'c:\\users\\thouwers\\appdata\\local\\continuum\\anaconda3\\lib\\site-packages\\PIL\\GimpPaletteFile.py',
   'PYMODULE'),
  ('PIL.GimpGradientFile',
   'c:\\users\\thouwers\\appdata\\local\\continuum\\anaconda3\\lib\\site-packages\\PIL\\GimpGradientFile.py',
   'PYMODULE'),
  ('PIL.PngImagePlugin',
   'c:\\users\\thouwers\\appdata\\local\\continuum\\anaconda3\\lib\\site-packages\\PIL\\PngImagePlugin.py',
   'PYMODULE'),
  ('PIL.PpmImagePlugin',
   'c:\\users\\thouwers\\appdata\\local\\continuum\\anaconda3\\lib\\site-packages\\PIL\\PpmImagePlugin.py',
   'PYMODULE'),
  ('PIL.JpegImagePlugin',
   'c:\\users\\thouwers\\appdata\\local\\continuum\\anaconda3\\lib\\site-packages\\PIL\\JpegImagePlugin.py',
   'PYMODULE'),
  ('PIL.JpegPresets',
   'c:\\users\\thouwers\\appdata\\local\\continuum\\anaconda3\\lib\\site-packages\\PIL\\JpegPresets.py',
   'PYMODULE'),
  ('PIL.GifImagePlugin',
   'c:\\users\\thouwers\\appdata\\local\\continuum\\anaconda3\\lib\\site-packages\\PIL\\GifImagePlugin.py',
   'PYMODULE'),
  ('PIL.ImageChops',
   'c:\\users\\thouwers\\appdata\\local\\continuum\\anaconda3\\lib\\site-packages\\PIL\\ImageChops.py',
   'PYMODULE'),
  ('PIL.BmpImagePlugin',
   'c:\\users\\thouwers\\appdata\\local\\continuum\\anaconda3\\lib\\site-packages\\PIL\\BmpImagePlugin.py',
   'PYMODULE'),
  ('pathlib2',
   'c:\\users\\thouwers\\appdata\\local\\continuum\\anaconda3\\lib\\site-packages\\pathlib2\\__init__.py',
   'PYMODULE'),
  ('six',
   'c:\\users\\thouwers\\appdata\\local\\continuum\\anaconda3\\lib\\site-packages\\six.py',
   'PYMODULE'),
  ('cffi',
   'c:\\users\\thouwers\\appdata\\local\\continuum\\anaconda3\\lib\\site-packages\\cffi\\__init__.py',
   'PYMODULE'),
  ('cffi.error',
   'c:\\users\\thouwers\\appdata\\local\\continuum\\anaconda3\\lib\\site-packages\\cffi\\error.py',
   'PYMODULE'),
  ('cffi.api',
   'c:\\users\\thouwers\\appdata\\local\\continuum\\anaconda3\\lib\\site-packages\\cffi\\api.py',
   'PYMODULE'),
  ('cffi.recompiler',
   'c:\\users\\thouwers\\appdata\\local\\continuum\\anaconda3\\lib\\site-packages\\cffi\\recompiler.py',
   'PYMODULE'),
  ('distutils.command.build_ext',
   'c:\\users\\thouwers\\appdata\\local\\continuum\\anaconda3\\lib\\distutils\\command\\build_ext.py',
   'PYMODULE'),
  ('distutils.command',
   'c:\\users\\thouwers\\appdata\\local\\continuum\\anaconda3\\lib\\distutils\\command\\__init__.py',
   'PYMODULE'),
  ('distutils._msvccompiler',
   'c:\\users\\thouwers\\appdata\\local\\continuum\\anaconda3\\lib\\distutils\\_msvccompiler.py',
   'PYMODULE'),
  ('json',
   'c:\\users\\thouwers\\appdata\\local\\continuum\\anaconda3\\lib\\json\\__init__.py',
   'PYMODULE'),
  ('json.encoder',
   'c:\\users\\thouwers\\appdata\\local\\continuum\\anaconda3\\lib\\json\\encoder.py',
   'PYMODULE'),
  ('json.decoder',
   'c:\\users\\thouwers\\appdata\\local\\continuum\\anaconda3\\lib\\json\\decoder.py',
   'PYMODULE'),
  ('json.scanner',
   'c:\\users\\thouwers\\appdata\\local\\continuum\\anaconda3\\lib\\json\\scanner.py',
   'PYMODULE'),
  ('concurrent.futures',
   'c:\\users\\thouwers\\appdata\\local\\continuum\\anaconda3\\lib\\concurrent\\futures\\__init__.py',
   'PYMODULE'),
  ('concurrent.futures.thread',
   'c:\\users\\thouwers\\appdata\\local\\continuum\\anaconda3\\lib\\concurrent\\futures\\thread.py',
   'PYMODULE'),
  ('concurrent.futures.process',
   'c:\\users\\thouwers\\appdata\\local\\continuum\\anaconda3\\lib\\concurrent\\futures\\process.py',
   'PYMODULE'),
  ('concurrent.futures._base',
   'c:\\users\\thouwers\\appdata\\local\\continuum\\anaconda3\\lib\\concurrent\\futures\\_base.py',
   'PYMODULE'),
  ('concurrent',
   'c:\\users\\thouwers\\appdata\\local\\continuum\\anaconda3\\lib\\concurrent\\__init__.py',
   'PYMODULE'),
  ('site',
   'c:\\users\\thouwers\\appdata\\local\\continuum\\anaconda3\\lib\\site-packages\\PyInstaller\\fake-modules\\site.py',
   'PYMODULE'),
  ('distutils.util',
   'c:\\users\\thouwers\\appdata\\local\\continuum\\anaconda3\\lib\\distutils\\util.py',
   'PYMODULE'),
  ('distutils.filelist',
   'c:\\users\\thouwers\\appdata\\local\\continuum\\anaconda3\\lib\\distutils\\filelist.py',
   'PYMODULE'),
  ('lib2to3.refactor',
   'c:\\users\\thouwers\\appdata\\local\\continuum\\anaconda3\\lib\\lib2to3\\refactor.py',
   'PYMODULE'),
  ('lib2to3.btm_matcher',
   'c:\\users\\thouwers\\appdata\\local\\continuum\\anaconda3\\lib\\lib2to3\\btm_matcher.py',
   'PYMODULE'),
  ('lib2to3.btm_utils',
   'c:\\users\\thouwers\\appdata\\local\\continuum\\anaconda3\\lib\\lib2to3\\btm_utils.py',
   'PYMODULE'),
  ('lib2to3.pgen2.grammar',
   'c:\\users\\thouwers\\appdata\\local\\continuum\\anaconda3\\lib\\lib2to3\\pgen2\\grammar.py',
   'PYMODULE'),
  ('lib2to3.pygram',
   'c:\\users\\thouwers\\appdata\\local\\continuum\\anaconda3\\lib\\lib2to3\\pygram.py',
   'PYMODULE'),
  ('lib2to3.pytree',
   'c:\\users\\thouwers\\appdata\\local\\continuum\\anaconda3\\lib\\lib2to3\\pytree.py',
   'PYMODULE'),
  ('lib2to3',
   'c:\\users\\thouwers\\appdata\\local\\continuum\\anaconda3\\lib\\lib2to3\\__init__.py',
   'PYMODULE'),
  ('lib2to3.patcomp',
   'c:\\users\\thouwers\\appdata\\local\\continuum\\anaconda3\\lib\\lib2to3\\patcomp.py',
   'PYMODULE'),
  ('lib2to3.pgen2.parse',
   'c:\\users\\thouwers\\appdata\\local\\continuum\\anaconda3\\lib\\lib2to3\\pgen2\\parse.py',
   'PYMODULE'),
  ('lib2to3.pgen2.literals',
   'c:\\users\\thouwers\\appdata\\local\\continuum\\anaconda3\\lib\\lib2to3\\pgen2\\literals.py',
   'PYMODULE'),
  ('lib2to3.fixer_util',
   'c:\\users\\thouwers\\appdata\\local\\continuum\\anaconda3\\lib\\lib2to3\\fixer_util.py',
   'PYMODULE'),
  ('lib2to3.pgen2.token',
   'c:\\users\\thouwers\\appdata\\local\\continuum\\anaconda3\\lib\\lib2to3\\pgen2\\token.py',
   'PYMODULE'),
  ('lib2to3.pgen2.tokenize',
   'c:\\users\\thouwers\\appdata\\local\\continuum\\anaconda3\\lib\\lib2to3\\pgen2\\tokenize.py',
   'PYMODULE'),
  ('lib2to3.pgen2.driver',
   'c:\\users\\thouwers\\appdata\\local\\continuum\\anaconda3\\lib\\lib2to3\\pgen2\\driver.py',
   'PYMODULE'),
  ('lib2to3.pgen2.pgen',
   'c:\\users\\thouwers\\appdata\\local\\continuum\\anaconda3\\lib\\lib2to3\\pgen2\\pgen.py',
   'PYMODULE'),
  ('lib2to3.pgen2',
   'c:\\users\\thouwers\\appdata\\local\\continuum\\anaconda3\\lib\\lib2to3\\pgen2\\__init__.py',
   'PYMODULE'),
  ('distutils.extension',
   'c:\\users\\thouwers\\appdata\\local\\continuum\\anaconda3\\lib\\distutils\\extension.py',
   'PYMODULE'),
  ('distutils.core',
   'c:\\users\\thouwers\\appdata\\local\\continuum\\anaconda3\\lib\\distutils\\core.py',
   'PYMODULE'),
  ('distutils.config',
   'c:\\users\\thouwers\\appdata\\local\\continuum\\anaconda3\\lib\\distutils\\config.py',
   'PYMODULE'),
  ('cgi',
   'c:\\users\\thouwers\\appdata\\local\\continuum\\anaconda3\\lib\\cgi.py',
   'PYMODULE'),
  ('configparser',
   'c:\\users\\thouwers\\appdata\\local\\continuum\\anaconda3\\lib\\configparser.py',
   'PYMODULE'),
  ('distutils.cmd',
   'c:\\users\\thouwers\\appdata\\local\\continuum\\anaconda3\\lib\\distutils\\cmd.py',
   'PYMODULE'),
  ('distutils.fancy_getopt',
   'c:\\users\\thouwers\\appdata\\local\\continuum\\anaconda3\\lib\\distutils\\fancy_getopt.py',
   'PYMODULE'),
  ('distutils.dist',
   'c:\\users\\thouwers\\appdata\\local\\continuum\\anaconda3\\lib\\distutils\\dist.py',
   'PYMODULE'),
  ('distutils.versionpredicate',
   'c:\\users\\thouwers\\appdata\\local\\continuum\\anaconda3\\lib\\distutils\\versionpredicate.py',
   'PYMODULE'),
  ('distutils.ccompiler',
   'c:\\users\\thouwers\\appdata\\local\\continuum\\anaconda3\\lib\\distutils\\ccompiler.py',
   'PYMODULE'),
  ('distutils.msvc9compiler',
   'c:\\users\\thouwers\\appdata\\local\\continuum\\anaconda3\\lib\\distutils\\msvc9compiler.py',
   'PYMODULE'),
  ('cffi.cffi_opcode',
   'c:\\users\\thouwers\\appdata\\local\\continuum\\anaconda3\\lib\\site-packages\\cffi\\cffi_opcode.py',
   'PYMODULE'),
  ('cffi.verifier',
   'c:\\users\\thouwers\\appdata\\local\\continuum\\anaconda3\\lib\\site-packages\\cffi\\verifier.py',
   'PYMODULE'),
  ('cffi.lock',
   'c:\\users\\thouwers\\appdata\\local\\continuum\\anaconda3\\lib\\site-packages\\cffi\\lock.py',
   'PYMODULE'),
  ('_dummy_thread',
   'c:\\users\\thouwers\\appdata\\local\\continuum\\anaconda3\\lib\\_dummy_thread.py',
   'PYMODULE'),
  ('cffi.pkgconfig',
   'c:\\users\\thouwers\\appdata\\local\\continuum\\anaconda3\\lib\\site-packages\\cffi\\pkgconfig.py',
   'PYMODULE'),
  ('cffi.vengine_cpy',
   'c:\\users\\thouwers\\appdata\\local\\continuum\\anaconda3\\lib\\site-packages\\cffi\\vengine_cpy.py',
   'PYMODULE'),
  ('cffi.vengine_gen',
   'c:\\users\\thouwers\\appdata\\local\\continuum\\anaconda3\\lib\\site-packages\\cffi\\vengine_gen.py',
   'PYMODULE'),
  ('cffi.ffiplatform',
   'c:\\users\\thouwers\\appdata\\local\\continuum\\anaconda3\\lib\\site-packages\\cffi\\ffiplatform.py',
   'PYMODULE'),
  ('setuptools',
   'c:\\users\\thouwers\\appdata\\local\\continuum\\anaconda3\\lib\\site-packages\\setuptools\\__init__.py',
   'PYMODULE'),
  ('setuptools._vendor.packaging.version',
   'c:\\users\\thouwers\\appdata\\local\\continuum\\anaconda3\\lib\\site-packages\\setuptools\\_vendor\\packaging\\version.py',
   'PYMODULE'),
  ('setuptools._vendor.pyparsing',
   'c:\\users\\thouwers\\appdata\\local\\continuum\\anaconda3\\lib\\site-packages\\setuptools\\_vendor\\pyparsing.py',
   'PYMODULE'),
  ('setuptools._vendor.packaging.specifiers',
   'c:\\users\\thouwers\\appdata\\local\\continuum\\anaconda3\\lib\\site-packages\\setuptools\\_vendor\\packaging\\specifiers.py',
   'PYMODULE'),
  ('setuptools._vendor.packaging.markers',
   'c:\\users\\thouwers\\appdata\\local\\continuum\\anaconda3\\lib\\site-packages\\setuptools\\_vendor\\packaging\\markers.py',
   'PYMODULE'),
  ('setuptools._vendor.packaging',
   'c:\\users\\thouwers\\appdata\\local\\continuum\\anaconda3\\lib\\site-packages\\setuptools\\_vendor\\packaging\\__init__.py',
   'PYMODULE'),
  ('setuptools._vendor.packaging._structures',
   'c:\\users\\thouwers\\appdata\\local\\continuum\\anaconda3\\lib\\site-packages\\setuptools\\_vendor\\packaging\\_structures.py',
   'PYMODULE'),
  ('setuptools._vendor.ordered_set',
   'c:\\users\\thouwers\\appdata\\local\\continuum\\anaconda3\\lib\\site-packages\\setuptools\\_vendor\\ordered_set.py',
   'PYMODULE'),
  ('setuptools._vendor',
   'c:\\users\\thouwers\\appdata\\local\\continuum\\anaconda3\\lib\\site-packages\\setuptools\\_vendor\\__init__.py',
   'PYMODULE'),
  ('setuptools._vendor.packaging.utils',
   'c:\\users\\thouwers\\appdata\\local\\continuum\\anaconda3\\lib\\site-packages\\setuptools\\_vendor\\packaging\\utils.py',
   'PYMODULE'),
  ('setuptools._vendor.packaging.requirements',
   'c:\\users\\thouwers\\appdata\\local\\continuum\\anaconda3\\lib\\site-packages\\setuptools\\_vendor\\packaging\\requirements.py',
   'PYMODULE'),
  ('html.parser',
   'c:\\users\\thouwers\\appdata\\local\\continuum\\anaconda3\\lib\\html\\parser.py',
   'PYMODULE'),
  ('_markupbase',
   'c:\\users\\thouwers\\appdata\\local\\continuum\\anaconda3\\lib\\_markupbase.py',
   'PYMODULE'),
  ('setuptools.extern',
   'c:\\users\\thouwers\\appdata\\local\\continuum\\anaconda3\\lib\\site-packages\\setuptools\\extern\\__init__.py',
   'PYMODULE'),
  ('setuptools._vendor.packaging._compat',
   'c:\\users\\thouwers\\appdata\\local\\continuum\\anaconda3\\lib\\site-packages\\setuptools\\_vendor\\packaging\\_compat.py',
   'PYMODULE'),
  ('setuptools._vendor.packaging.__about__',
   'c:\\users\\thouwers\\appdata\\local\\continuum\\anaconda3\\lib\\site-packages\\setuptools\\_vendor\\packaging\\__about__.py',
   'PYMODULE'),
  ('setuptools._vendor.six',
   'c:\\users\\thouwers\\appdata\\local\\continuum\\anaconda3\\lib\\site-packages\\setuptools\\_vendor\\six.py',
   'PYMODULE'),
  ('setuptools.msvc',
   'c:\\users\\thouwers\\appdata\\local\\continuum\\anaconda3\\lib\\site-packages\\setuptools\\msvc.py',
   'PYMODULE'),
  ('setuptools.monkey',
   'c:\\users\\thouwers\\appdata\\local\\continuum\\anaconda3\\lib\\site-packages\\setuptools\\monkey.py',
   'PYMODULE'),
  ('setuptools.depends',
   'c:\\users\\thouwers\\appdata\\local\\continuum\\anaconda3\\lib\\site-packages\\setuptools\\depends.py',
   'PYMODULE'),
  ('setuptools.py33compat',
   'c:\\users\\thouwers\\appdata\\local\\continuum\\anaconda3\\lib\\site-packages\\setuptools\\py33compat.py',
   'PYMODULE'),
  ('setuptools.dist',
   'c:\\users\\thouwers\\appdata\\local\\continuum\\anaconda3\\lib\\site-packages\\setuptools\\dist.py',
   'PYMODULE'),
  ('setuptools.command.easy_install',
   'c:\\users\\thouwers\\appdata\\local\\continuum\\anaconda3\\lib\\site-packages\\setuptools\\command\\easy_install.py',
   'PYMODULE'),
  ('setuptools.wheel',
   'c:\\users\\thouwers\\appdata\\local\\continuum\\anaconda3\\lib\\site-packages\\setuptools\\wheel.py',
   'PYMODULE'),
  ('setuptools.command.egg_info',
   'c:\\users\\thouwers\\appdata\\local\\continuum\\anaconda3\\lib\\site-packages\\setuptools\\command\\egg_info.py',
   'PYMODULE'),
  ('setuptools.glob',
   'c:\\users\\thouwers\\appdata\\local\\continuum\\anaconda3\\lib\\site-packages\\setuptools\\glob.py',
   'PYMODULE'),
  ('setuptools.unicode_utils',
   'c:\\users\\thouwers\\appdata\\local\\continuum\\anaconda3\\lib\\site-packages\\setuptools\\unicode_utils.py',
   'PYMODULE'),
  ('setuptools.command.sdist',
   'c:\\users\\thouwers\\appdata\\local\\continuum\\anaconda3\\lib\\site-packages\\setuptools\\command\\sdist.py',
   'PYMODULE'),
  ('setuptools.command.py36compat',
   'c:\\users\\thouwers\\appdata\\local\\continuum\\anaconda3\\lib\\site-packages\\setuptools\\command\\py36compat.py',
   'PYMODULE'),
  ('distutils.command.sdist',
   'c:\\users\\thouwers\\appdata\\local\\continuum\\anaconda3\\lib\\distutils\\command\\sdist.py',
   'PYMODULE'),
  ('setuptools.command.bdist_egg',
   'c:\\users\\thouwers\\appdata\\local\\continuum\\anaconda3\\lib\\site-packages\\setuptools\\command\\bdist_egg.py',
   'PYMODULE'),
  ('setuptools.package_index',
   'c:\\users\\thouwers\\appdata\\local\\continuum\\anaconda3\\lib\\site-packages\\setuptools\\package_index.py',
   'PYMODULE'),
  ('setuptools.archive_util',
   'c:\\users\\thouwers\\appdata\\local\\continuum\\anaconda3\\lib\\site-packages\\setuptools\\archive_util.py',
   'PYMODULE'),
  ('setuptools.command.setopt',
   'c:\\users\\thouwers\\appdata\\local\\continuum\\anaconda3\\lib\\site-packages\\setuptools\\command\\setopt.py',
   'PYMODULE'),
  ('setuptools.command',
   'c:\\users\\thouwers\\appdata\\local\\continuum\\anaconda3\\lib\\site-packages\\setuptools\\command\\__init__.py',
   'PYMODULE'),
  ('setuptools.command.install_scripts',
   'c:\\users\\thouwers\\appdata\\local\\continuum\\anaconda3\\lib\\site-packages\\setuptools\\command\\install_scripts.py',
   'PYMODULE'),
  ('distutils.command.install_scripts',
   'c:\\users\\thouwers\\appdata\\local\\continuum\\anaconda3\\lib\\distutils\\command\\install_scripts.py',
   'PYMODULE'),
  ('distutils.command.bdist',
   'c:\\users\\thouwers\\appdata\\local\\continuum\\anaconda3\\lib\\distutils\\command\\bdist.py',
   'PYMODULE'),
  ('setuptools.py27compat',
   'c:\\users\\thouwers\\appdata\\local\\continuum\\anaconda3\\lib\\site-packages\\setuptools\\py27compat.py',
   'PYMODULE'),
  ('setuptools.sandbox',
   'c:\\users\\thouwers\\appdata\\local\\continuum\\anaconda3\\lib\\site-packages\\setuptools\\sandbox.py',
   'PYMODULE'),
  ('distutils.command.build_scripts',
   'c:\\users\\thouwers\\appdata\\local\\continuum\\anaconda3\\lib\\distutils\\command\\build_scripts.py',
   'PYMODULE'),
  ('distutils.command.install',
   'c:\\users\\thouwers\\appdata\\local\\continuum\\anaconda3\\lib\\distutils\\command\\install.py',
   'PYMODULE'),
  ('setuptools.config',
   'c:\\users\\thouwers\\appdata\\local\\continuum\\anaconda3\\lib\\site-packages\\setuptools\\config.py',
   'PYMODULE'),
  ('setuptools.pep425tags',
   'c:\\users\\thouwers\\appdata\\local\\continuum\\anaconda3\\lib\\site-packages\\setuptools\\pep425tags.py',
   'PYMODULE'),
  ('setuptools.glibc',
   'c:\\users\\thouwers\\appdata\\local\\continuum\\anaconda3\\lib\\site-packages\\setuptools\\glibc.py',
   'PYMODULE'),
  ('setuptools.ssl_support',
   'c:\\users\\thouwers\\appdata\\local\\continuum\\anaconda3\\lib\\site-packages\\setuptools\\ssl_support.py',
   'PYMODULE'),
  ('wincertstore',
   'c:\\users\\thouwers\\appdata\\local\\continuum\\anaconda3\\lib\\site-packages\\wincertstore.py',
   'PYMODULE'),
  ('setuptools.windows_support',
   'c:\\users\\thouwers\\appdata\\local\\continuum\\anaconda3\\lib\\site-packages\\setuptools\\windows_support.py',
   'PYMODULE'),
  ('setuptools.extension',
   'c:\\users\\thouwers\\appdata\\local\\continuum\\anaconda3\\lib\\site-packages\\setuptools\\extension.py',
   'PYMODULE'),
  ('setuptools.version',
   'c:\\users\\thouwers\\appdata\\local\\continuum\\anaconda3\\lib\\site-packages\\setuptools\\version.py',
   'PYMODULE'),
  ('setuptools._deprecation_warning',
   'c:\\users\\thouwers\\appdata\\local\\continuum\\anaconda3\\lib\\site-packages\\setuptools\\_deprecation_warning.py',
   'PYMODULE'),
  ('cffi.cparser',
   'c:\\users\\thouwers\\appdata\\local\\continuum\\anaconda3\\lib\\site-packages\\cffi\\cparser.py',
   'PYMODULE'),
  ('pycparser.lextab',
   'c:\\users\\thouwers\\appdata\\local\\continuum\\anaconda3\\lib\\site-packages\\pycparser\\lextab.py',
   'PYMODULE'),
  ('pycparser.yacctab',
   'c:\\users\\thouwers\\appdata\\local\\continuum\\anaconda3\\lib\\site-packages\\pycparser\\yacctab.py',
   'PYMODULE'),
  ('pycparser',
   'c:\\users\\thouwers\\appdata\\local\\continuum\\anaconda3\\lib\\site-packages\\pycparser\\__init__.py',
   'PYMODULE'),
  ('pycparser.c_parser',
   'c:\\users\\thouwers\\appdata\\local\\continuum\\anaconda3\\lib\\site-packages\\pycparser\\c_parser.py',
   'PYMODULE'),
  ('pycparser.ast_transforms',
   'c:\\users\\thouwers\\appdata\\local\\continuum\\anaconda3\\lib\\site-packages\\pycparser\\ast_transforms.py',
   'PYMODULE'),
  ('pycparser.plyparser',
   'c:\\users\\thouwers\\appdata\\local\\continuum\\anaconda3\\lib\\site-packages\\pycparser\\plyparser.py',
   'PYMODULE'),
  ('pycparser.c_lexer',
   'c:\\users\\thouwers\\appdata\\local\\continuum\\anaconda3\\lib\\site-packages\\pycparser\\c_lexer.py',
   'PYMODULE'),
  ('pycparser.ply.lex',
   'c:\\users\\thouwers\\appdata\\local\\continuum\\anaconda3\\lib\\site-packages\\pycparser\\ply\\lex.py',
   'PYMODULE'),
  ('pycparser.ply.yacc',
   'c:\\users\\thouwers\\appdata\\local\\continuum\\anaconda3\\lib\\site-packages\\pycparser\\ply\\yacc.py',
   'PYMODULE'),
  ('pycparser.ply',
   'c:\\users\\thouwers\\appdata\\local\\continuum\\anaconda3\\lib\\site-packages\\pycparser\\ply\\__init__.py',
   'PYMODULE'),
  ('pycparser.c_ast',
   'c:\\users\\thouwers\\appdata\\local\\continuum\\anaconda3\\lib\\site-packages\\pycparser\\c_ast.py',
   'PYMODULE'),
  ('cffi.commontypes',
   'c:\\users\\thouwers\\appdata\\local\\continuum\\anaconda3\\lib\\site-packages\\cffi\\commontypes.py',
   'PYMODULE'),
  ('cffi.model',
   'c:\\users\\thouwers\\appdata\\local\\continuum\\anaconda3\\lib\\site-packages\\cffi\\model.py',
   'PYMODULE'),
  ('PIL._binary',
   'c:\\users\\thouwers\\appdata\\local\\continuum\\anaconda3\\lib\\site-packages\\PIL\\_binary.py',
   'PYMODULE'),
  ('PIL.TiffTags',
   'c:\\users\\thouwers\\appdata\\local\\continuum\\anaconda3\\lib\\site-packages\\PIL\\TiffTags.py',
   'PYMODULE'),
  ('PIL.ImageMode',
   'c:\\users\\thouwers\\appdata\\local\\continuum\\anaconda3\\lib\\site-packages\\PIL\\ImageMode.py',
   'PYMODULE'),
  ('PIL',
   'c:\\users\\thouwers\\appdata\\local\\continuum\\anaconda3\\lib\\site-packages\\PIL\\__init__.py',
   'PYMODULE'),
  ('PIL._version',
   'c:\\users\\thouwers\\appdata\\local\\continuum\\anaconda3\\lib\\site-packages\\PIL\\_version.py',
   'PYMODULE'),
  ('pptx.text.fonts',
   'c:\\users\\thouwers\\appdata\\local\\continuum\\anaconda3\\lib\\site-packages\\pptx\\text\\fonts.py',
   'PYMODULE'),
  ('pptx.enum.text',
   'c:\\users\\thouwers\\appdata\\local\\continuum\\anaconda3\\lib\\site-packages\\pptx\\enum\\text.py',
   'PYMODULE'),
  ('pptx.enum.lang',
   'c:\\users\\thouwers\\appdata\\local\\continuum\\anaconda3\\lib\\site-packages\\pptx\\enum\\lang.py',
   'PYMODULE'),
  ('pptx.oxml.table',
   'c:\\users\\thouwers\\appdata\\local\\continuum\\anaconda3\\lib\\site-packages\\pptx\\oxml\\table.py',
   'PYMODULE'),
  ('pptx.oxml.xmlchemy',
   'c:\\users\\thouwers\\appdata\\local\\continuum\\anaconda3\\lib\\site-packages\\pptx\\oxml\\xmlchemy.py',
   'PYMODULE'),
  ('lxml',
   'c:\\users\\thouwers\\appdata\\local\\continuum\\anaconda3\\lib\\site-packages\\lxml\\__init__.py',
   'PYMODULE'),
  ('pptx.oxml.text',
   'c:\\users\\thouwers\\appdata\\local\\continuum\\anaconda3\\lib\\site-packages\\pptx\\oxml\\text.py',
   'PYMODULE'),
  ('pptx.oxml.dml.fill',
   'c:\\users\\thouwers\\appdata\\local\\continuum\\anaconda3\\lib\\site-packages\\pptx\\oxml\\dml\\fill.py',
   'PYMODULE'),
  ('pptx.oxml.dml',
   'c:\\users\\thouwers\\appdata\\local\\continuum\\anaconda3\\lib\\site-packages\\pptx\\oxml\\dml\\__init__.py',
   'PYMODULE'),
  ('pptx.oxml',
   'c:\\users\\thouwers\\appdata\\local\\continuum\\anaconda3\\lib\\site-packages\\pptx\\oxml\\__init__.py',
   'PYMODULE'),
  ('pptx.oxml.shapes.shared',
   'c:\\users\\thouwers\\appdata\\local\\continuum\\anaconda3\\lib\\site-packages\\pptx\\oxml\\shapes\\shared.py',
   'PYMODULE'),
  ('pptx.oxml.shapes',
   'c:\\users\\thouwers\\appdata\\local\\continuum\\anaconda3\\lib\\site-packages\\pptx\\oxml\\shapes\\__init__.py',
   'PYMODULE'),
  ('pptx.oxml.shapes.groupshape',
   'c:\\users\\thouwers\\appdata\\local\\continuum\\anaconda3\\lib\\site-packages\\pptx\\oxml\\shapes\\groupshape.py',
   'PYMODULE'),
  ('pptx.oxml.shapes.connector',
   'c:\\users\\thouwers\\appdata\\local\\continuum\\anaconda3\\lib\\site-packages\\pptx\\oxml\\shapes\\connector.py',
   'PYMODULE'),
  ('pptx.oxml.shapes.autoshape',
   'c:\\users\\thouwers\\appdata\\local\\continuum\\anaconda3\\lib\\site-packages\\pptx\\oxml\\shapes\\autoshape.py',
   'PYMODULE'),
  ('pptx.oxml.presentation',
   'c:\\users\\thouwers\\appdata\\local\\continuum\\anaconda3\\lib\\site-packages\\pptx\\oxml\\presentation.py',
   'PYMODULE'),
  ('pptx.oxml.dml.line',
   'c:\\users\\thouwers\\appdata\\local\\continuum\\anaconda3\\lib\\site-packages\\pptx\\oxml\\dml\\line.py',
   'PYMODULE'),
  ('pptx.oxml.dml.color',
   'c:\\users\\thouwers\\appdata\\local\\continuum\\anaconda3\\lib\\site-packages\\pptx\\oxml\\dml\\color.py',
   'PYMODULE'),
  ('pptx.oxml.coreprops',
   'c:\\users\\thouwers\\appdata\\local\\continuum\\anaconda3\\lib\\site-packages\\pptx\\oxml\\coreprops.py',
   'PYMODULE'),
  ('pptx.oxml.chart.shared',
   'c:\\users\\thouwers\\appdata\\local\\continuum\\anaconda3\\lib\\site-packages\\pptx\\oxml\\chart\\shared.py',
   'PYMODULE'),
  ('pptx.oxml.chart',
   'c:\\users\\thouwers\\appdata\\local\\continuum\\anaconda3\\lib\\site-packages\\pptx\\oxml\\chart\\__init__.py',
   'PYMODULE'),
  ('pptx.oxml.chart.series',
   'c:\\users\\thouwers\\appdata\\local\\continuum\\anaconda3\\lib\\site-packages\\pptx\\oxml\\chart\\series.py',
   'PYMODULE'),
  ('pptx.oxml.chart.plot',
   'c:\\users\\thouwers\\appdata\\local\\continuum\\anaconda3\\lib\\site-packages\\pptx\\oxml\\chart\\plot.py',
   'PYMODULE'),
  ('pptx.oxml.chart.marker',
   'c:\\users\\thouwers\\appdata\\local\\continuum\\anaconda3\\lib\\site-packages\\pptx\\oxml\\chart\\marker.py',
   'PYMODULE'),
  ('pptx.enum.chart',
   'c:\\users\\thouwers\\appdata\\local\\continuum\\anaconda3\\lib\\site-packages\\pptx\\enum\\chart.py',
   'PYMODULE'),
  ('pptx.oxml.chart.legend',
   'c:\\users\\thouwers\\appdata\\local\\continuum\\anaconda3\\lib\\site-packages\\pptx\\oxml\\chart\\legend.py',
   'PYMODULE'),
  ('pptx.oxml.chart.datalabel',
   'c:\\users\\thouwers\\appdata\\local\\continuum\\anaconda3\\lib\\site-packages\\pptx\\oxml\\chart\\datalabel.py',
   'PYMODULE'),
  ('pptx.oxml.chart.chart',
   'c:\\users\\thouwers\\appdata\\local\\continuum\\anaconda3\\lib\\site-packages\\pptx\\oxml\\chart\\chart.py',
   'PYMODULE'),
  ('pptx.oxml.chart.axis',
   'c:\\users\\thouwers\\appdata\\local\\continuum\\anaconda3\\lib\\site-packages\\pptx\\oxml\\chart\\axis.py',
   'PYMODULE'),
  ('pptx.oxml.action',
   'c:\\users\\thouwers\\appdata\\local\\continuum\\anaconda3\\lib\\site-packages\\pptx\\oxml\\action.py',
   'PYMODULE'),
  ('pptx.shapes.freeform',
   'c:\\users\\thouwers\\appdata\\local\\continuum\\anaconda3\\lib\\site-packages\\pptx\\shapes\\freeform.py',
   'PYMODULE'),
  ('pptx.shapes.connector',
   'c:\\users\\thouwers\\appdata\\local\\continuum\\anaconda3\\lib\\site-packages\\pptx\\shapes\\connector.py',
   'PYMODULE'),
  ('pptx.shapes.base',
   'c:\\users\\thouwers\\appdata\\local\\continuum\\anaconda3\\lib\\site-packages\\pptx\\shapes\\base.py',
   'PYMODULE'),
  ('pptx.action',
   'c:\\users\\thouwers\\appdata\\local\\continuum\\anaconda3\\lib\\site-packages\\pptx\\action.py',
   'PYMODULE'),
  ('pptx.enum.action',
   'c:\\users\\thouwers\\appdata\\local\\continuum\\anaconda3\\lib\\site-packages\\pptx\\enum\\action.py',
   'PYMODULE'),
  ('pptx.shapes.autoshape',
   'c:\\users\\thouwers\\appdata\\local\\continuum\\anaconda3\\lib\\site-packages\\pptx\\shapes\\autoshape.py',
   'PYMODULE'),
  ('pptx.spec',
   'c:\\users\\thouwers\\appdata\\local\\continuum\\anaconda3\\lib\\site-packages\\pptx\\spec.py',
   'PYMODULE'),
  ('pptx.oxml.simpletypes',
   'c:\\users\\thouwers\\appdata\\local\\continuum\\anaconda3\\lib\\site-packages\\pptx\\oxml\\simpletypes.py',
   'PYMODULE'),
  ('pptx.oxml.shapes.picture',
   'c:\\users\\thouwers\\appdata\\local\\continuum\\anaconda3\\lib\\site-packages\\pptx\\oxml\\shapes\\picture.py',
   'PYMODULE'),
  ('pptx.oxml.shapes.graphfrm',
   'c:\\users\\thouwers\\appdata\\local\\continuum\\anaconda3\\lib\\site-packages\\pptx\\oxml\\shapes\\graphfrm.py',
   'PYMODULE'),
  ('pptx.oxml.ns',
   'c:\\users\\thouwers\\appdata\\local\\continuum\\anaconda3\\lib\\site-packages\\pptx\\oxml\\ns.py',
   'PYMODULE'),
  ('pptx.media',
   'c:\\users\\thouwers\\appdata\\local\\continuum\\anaconda3\\lib\\site-packages\\pptx\\media.py',
   'PYMODULE'),
  ('pptx.compat',
   'c:\\users\\thouwers\\appdata\\local\\continuum\\anaconda3\\lib\\site-packages\\pptx\\compat\\__init__.py',
   'PYMODULE'),
  ('pptx.compat.python2',
   'c:\\users\\thouwers\\appdata\\local\\continuum\\anaconda3\\lib\\site-packages\\pptx\\compat\\python2.py',
   'PYMODULE'),
  ('pptx.compat.python3',
   'c:\\users\\thouwers\\appdata\\local\\continuum\\anaconda3\\lib\\site-packages\\pptx\\compat\\python3.py',
   'PYMODULE'),
  ('pptx.enum.shapes',
   'c:\\users\\thouwers\\appdata\\local\\continuum\\anaconda3\\lib\\site-packages\\pptx\\enum\\shapes.py',
   'PYMODULE'),
  ('pptx.dml.fill',
   'c:\\users\\thouwers\\appdata\\local\\continuum\\anaconda3\\lib\\site-packages\\pptx\\dml\\fill.py',
   'PYMODULE'),
  ('pptx.dml.color',
   'c:\\users\\thouwers\\appdata\\local\\continuum\\anaconda3\\lib\\site-packages\\pptx\\dml\\color.py',
   'PYMODULE'),
  ('pptx.oxml.theme',
   'c:\\users\\thouwers\\appdata\\local\\continuum\\anaconda3\\lib\\site-packages\\pptx\\oxml\\theme.py',
   'PYMODULE'),
  ('pptx.oxml.slide',
   'c:\\users\\thouwers\\appdata\\local\\continuum\\anaconda3\\lib\\site-packages\\pptx\\oxml\\slide.py',
   'PYMODULE'),
  ('pptx.opc.packuri',
   'c:\\users\\thouwers\\appdata\\local\\continuum\\anaconda3\\lib\\site-packages\\pptx\\opc\\packuri.py',
   'PYMODULE'),
  ('pptx.opc',
   'c:\\users\\thouwers\\appdata\\local\\continuum\\anaconda3\\lib\\site-packages\\pptx\\opc\\__init__.py',
   'PYMODULE'),
  ('pptx.parts.presentation',
   'c:\\users\\thouwers\\appdata\\local\\continuum\\anaconda3\\lib\\site-packages\\pptx\\parts\\presentation.py',
   'PYMODULE'),
  ('pptx.presentation',
   'c:\\users\\thouwers\\appdata\\local\\continuum\\anaconda3\\lib\\site-packages\\pptx\\presentation.py',
   'PYMODULE'),
  ('pptx.parts.media',
   'c:\\users\\thouwers\\appdata\\local\\continuum\\anaconda3\\lib\\site-packages\\pptx\\parts\\media.py',
   'PYMODULE'),
  ('pptx.parts.image',
   'c:\\users\\thouwers\\appdata\\local\\continuum\\anaconda3\\lib\\site-packages\\pptx\\parts\\image.py',
   'PYMODULE'),
  ('pptx.opc.spec',
   'c:\\users\\thouwers\\appdata\\local\\continuum\\anaconda3\\lib\\site-packages\\pptx\\opc\\spec.py',
   'PYMODULE'),
  ('pptx.parts.coreprops',
   'c:\\users\\thouwers\\appdata\\local\\continuum\\anaconda3\\lib\\site-packages\\pptx\\parts\\coreprops.py',
   'PYMODULE'),
  ('pptx.parts.chart',
   'c:\\users\\thouwers\\appdata\\local\\continuum\\anaconda3\\lib\\site-packages\\pptx\\parts\\chart.py',
   'PYMODULE'),
  ('pptx.parts.embeddedpackage',
   'c:\\users\\thouwers\\appdata\\local\\continuum\\anaconda3\\lib\\site-packages\\pptx\\parts\\embeddedpackage.py',
   'PYMODULE'),
  ('pptx.chart.chart',
   'c:\\users\\thouwers\\appdata\\local\\continuum\\anaconda3\\lib\\site-packages\\pptx\\chart\\chart.py',
   'PYMODULE'),
  ('pptx.chart',
   'c:\\users\\thouwers\\appdata\\local\\continuum\\anaconda3\\lib\\site-packages\\pptx\\chart\\__init__.py',
   'PYMODULE'),
  ('pptx.dml.chtfmt',
   'c:\\users\\thouwers\\appdata\\local\\continuum\\anaconda3\\lib\\site-packages\\pptx\\dml\\chtfmt.py',
   'PYMODULE'),
  ('pptx.chart.xmlwriter',
   'c:\\users\\thouwers\\appdata\\local\\continuum\\anaconda3\\lib\\site-packages\\pptx\\chart\\xmlwriter.py',
   'PYMODULE'),
  ('pptx.chart.series',
   'c:\\users\\thouwers\\appdata\\local\\continuum\\anaconda3\\lib\\site-packages\\pptx\\chart\\series.py',
   'PYMODULE'),
  ('pptx.chart.point',
   'c:\\users\\thouwers\\appdata\\local\\continuum\\anaconda3\\lib\\site-packages\\pptx\\chart\\point.py',
   'PYMODULE'),
  ('pptx.chart.marker',
   'c:\\users\\thouwers\\appdata\\local\\continuum\\anaconda3\\lib\\site-packages\\pptx\\chart\\marker.py',
   'PYMODULE'),
  ('pptx.chart.datalabel',
   'c:\\users\\thouwers\\appdata\\local\\continuum\\anaconda3\\lib\\site-packages\\pptx\\chart\\datalabel.py',
   'PYMODULE'),
  ('pptx.chart.plot',
   'c:\\users\\thouwers\\appdata\\local\\continuum\\anaconda3\\lib\\site-packages\\pptx\\chart\\plot.py',
   'PYMODULE'),
  ('pptx.chart.category',
   'c:\\users\\thouwers\\appdata\\local\\continuum\\anaconda3\\lib\\site-packages\\pptx\\chart\\category.py',
   'PYMODULE'),
  ('pptx.chart.legend',
   'c:\\users\\thouwers\\appdata\\local\\continuum\\anaconda3\\lib\\site-packages\\pptx\\chart\\legend.py',
   'PYMODULE'),
  ('pptx.chart.axis',
   'c:\\users\\thouwers\\appdata\\local\\continuum\\anaconda3\\lib\\site-packages\\pptx\\chart\\axis.py',
   'PYMODULE'),
  ('pptx.opc.package',
   'c:\\users\\thouwers\\appdata\\local\\continuum\\anaconda3\\lib\\site-packages\\pptx\\opc\\package.py',
   'PYMODULE'),
  ('pptx.opc.pkgwriter',
   'c:\\users\\thouwers\\appdata\\local\\continuum\\anaconda3\\lib\\site-packages\\pptx\\opc\\pkgwriter.py',
   'PYMODULE'),
  ('pptx.opc.shared',
   'c:\\users\\thouwers\\appdata\\local\\continuum\\anaconda3\\lib\\site-packages\\pptx\\opc\\shared.py',
   'PYMODULE'),
  ('pptx.opc.phys_pkg',
   'c:\\users\\thouwers\\appdata\\local\\continuum\\anaconda3\\lib\\site-packages\\pptx\\opc\\phys_pkg.py',
   'PYMODULE'),
  ('pptx.opc.pkgreader',
   'c:\\users\\thouwers\\appdata\\local\\continuum\\anaconda3\\lib\\site-packages\\pptx\\opc\\pkgreader.py',
   'PYMODULE'),
  ('pptx.opc.oxml',
   'c:\\users\\thouwers\\appdata\\local\\continuum\\anaconda3\\lib\\site-packages\\pptx\\opc\\oxml.py',
   'PYMODULE'),
  ('pptx.opc.constants',
   'c:\\users\\thouwers\\appdata\\local\\continuum\\anaconda3\\lib\\site-packages\\pptx\\opc\\constants.py',
   'PYMODULE'),
  ('pptx.api',
   'c:\\users\\thouwers\\appdata\\local\\continuum\\anaconda3\\lib\\site-packages\\pptx\\api.py',
   'PYMODULE'),
  ('pptx.package',
   'c:\\users\\thouwers\\appdata\\local\\continuum\\anaconda3\\lib\\site-packages\\pptx\\package.py',
   'PYMODULE'),
  ('pptx.exc',
   'c:\\users\\thouwers\\appdata\\local\\continuum\\anaconda3\\lib\\site-packages\\pptx\\exc.py',
   'PYMODULE'),
  ('os',
   'c:\\users\\thouwers\\appdata\\local\\continuum\\anaconda3\\lib\\os.py',
   'PYMODULE')],
 [('api-ms-win-crt-runtime-l1-1-0.dll',
   'c:\\users\\thouwers\\appdata\\local\\continuum\\anaconda3\\api-ms-win-crt-runtime-l1-1-0.dll',
   'BINARY'),
  ('VCRUNTIME140.dll',
   'c:\\users\\thouwers\\appdata\\local\\continuum\\anaconda3\\VCRUNTIME140.dll',
   'BINARY'),
  ('api-ms-win-crt-math-l1-1-0.dll',
   'c:\\users\\thouwers\\appdata\\local\\continuum\\anaconda3\\api-ms-win-crt-math-l1-1-0.dll',
   'BINARY'),
  ('api-ms-win-crt-stdio-l1-1-0.dll',
   'c:\\users\\thouwers\\appdata\\local\\continuum\\anaconda3\\api-ms-win-crt-stdio-l1-1-0.dll',
   'BINARY'),
  ('python37.dll',
   'c:\\users\\thouwers\\appdata\\local\\continuum\\anaconda3\\python37.dll',
   'BINARY'),
  ('api-ms-win-crt-heap-l1-1-0.dll',
   'c:\\users\\thouwers\\appdata\\local\\continuum\\anaconda3\\api-ms-win-crt-heap-l1-1-0.dll',
   'BINARY'),
  ('api-ms-win-crt-locale-l1-1-0.dll',
   'c:\\users\\thouwers\\appdata\\local\\continuum\\anaconda3\\api-ms-win-crt-locale-l1-1-0.dll',
   'BINARY'),
  ('ucrtbase.dll',
   'c:\\users\\thouwers\\appdata\\local\\continuum\\anaconda3\\ucrtbase.dll',
   'BINARY'),
  ('api-ms-win-crt-string-l1-1-0.dll',
   'c:\\users\\thouwers\\appdata\\local\\continuum\\anaconda3\\api-ms-win-crt-string-l1-1-0.dll',
   'BINARY'),
  ('api-ms-win-crt-convert-l1-1-0.dll',
   'c:\\users\\thouwers\\appdata\\local\\continuum\\anaconda3\\api-ms-win-crt-convert-l1-1-0.dll',
   'BINARY'),
  ('api-ms-win-crt-time-l1-1-0.dll',
   'c:\\users\\thouwers\\appdata\\local\\continuum\\anaconda3\\api-ms-win-crt-time-l1-1-0.dll',
   'BINARY'),
  ('api-ms-win-crt-conio-l1-1-0.dll',
   'c:\\users\\thouwers\\appdata\\local\\continuum\\anaconda3\\api-ms-win-crt-conio-l1-1-0.dll',
   'BINARY'),
  ('api-ms-win-crt-environment-l1-1-0.dll',
   'c:\\users\\thouwers\\appdata\\local\\continuum\\anaconda3\\api-ms-win-crt-environment-l1-1-0.dll',
   'BINARY'),
  ('api-ms-win-crt-filesystem-l1-1-0.dll',
   'c:\\users\\thouwers\\appdata\\local\\continuum\\anaconda3\\api-ms-win-crt-filesystem-l1-1-0.dll',
   'BINARY'),
  ('api-ms-win-crt-process-l1-1-0.dll',
   'c:\\users\\thouwers\\appdata\\local\\continuum\\anaconda3\\api-ms-win-crt-process-l1-1-0.dll',
   'BINARY'),
  ('api-ms-win-core-file-l1-1-0.dll',
   'c:\\users\\thouwers\\appdata\\local\\continuum\\anaconda3\\api-ms-win-core-file-l1-1-0.dll',
   'BINARY'),
  ('api-ms-win-core-processthreads-l1-1-0.dll',
   'c:\\users\\thouwers\\appdata\\local\\continuum\\anaconda3\\api-ms-win-core-processthreads-l1-1-0.dll',
   'BINARY'),
  ('api-ms-win-core-profile-l1-1-0.dll',
   'c:\\users\\thouwers\\appdata\\local\\continuum\\anaconda3\\api-ms-win-core-profile-l1-1-0.dll',
   'BINARY'),
  ('api-ms-win-core-processthreads-l1-1-1.dll',
   'c:\\users\\thouwers\\appdata\\local\\continuum\\anaconda3\\api-ms-win-core-processthreads-l1-1-1.dll',
   'BINARY'),
  ('api-ms-win-core-rtlsupport-l1-1-0.dll',
   'c:\\users\\thouwers\\appdata\\local\\continuum\\anaconda3\\api-ms-win-core-rtlsupport-l1-1-0.dll',
   'BINARY'),
  ('api-ms-win-core-handle-l1-1-0.dll',
   'c:\\users\\thouwers\\appdata\\local\\continuum\\anaconda3\\api-ms-win-core-handle-l1-1-0.dll',
   'BINARY'),
  ('api-ms-win-core-errorhandling-l1-1-0.dll',
   'c:\\users\\thouwers\\appdata\\local\\continuum\\anaconda3\\api-ms-win-core-errorhandling-l1-1-0.dll',
   'BINARY'),
  ('api-ms-win-core-synch-l1-1-0.dll',
   'c:\\users\\thouwers\\appdata\\local\\continuum\\anaconda3\\api-ms-win-core-synch-l1-1-0.dll',
   'BINARY'),
  ('api-ms-win-core-heap-l1-1-0.dll',
   'c:\\users\\thouwers\\appdata\\local\\continuum\\anaconda3\\api-ms-win-core-heap-l1-1-0.dll',
   'BINARY'),
  ('api-ms-win-core-synch-l1-2-0.dll',
   'c:\\users\\thouwers\\appdata\\local\\continuum\\anaconda3\\api-ms-win-core-synch-l1-2-0.dll',
   'BINARY'),
  ('api-ms-win-core-datetime-l1-1-0.dll',
   'c:\\users\\thouwers\\appdata\\local\\continuum\\anaconda3\\api-ms-win-core-datetime-l1-1-0.dll',
   'BINARY'),
  ('api-ms-win-core-string-l1-1-0.dll',
   'c:\\users\\thouwers\\appdata\\local\\continuum\\anaconda3\\api-ms-win-core-string-l1-1-0.dll',
   'BINARY'),
  ('api-ms-win-core-localization-l1-2-0.dll',
   'c:\\users\\thouwers\\appdata\\local\\continuum\\anaconda3\\api-ms-win-core-localization-l1-2-0.dll',
   'BINARY'),
  ('api-ms-win-core-util-l1-1-0.dll',
   'c:\\users\\thouwers\\appdata\\local\\continuum\\anaconda3\\api-ms-win-core-util-l1-1-0.dll',
   'BINARY'),
  ('api-ms-win-core-sysinfo-l1-1-0.dll',
   'c:\\users\\thouwers\\appdata\\local\\continuum\\anaconda3\\api-ms-win-core-sysinfo-l1-1-0.dll',
   'BINARY'),
  ('api-ms-win-core-file-l1-2-0.dll',
   'c:\\users\\thouwers\\appdata\\local\\continuum\\anaconda3\\api-ms-win-core-file-l1-2-0.dll',
   'BINARY'),
  ('api-ms-win-core-console-l1-1-0.dll',
   'c:\\users\\thouwers\\appdata\\local\\continuum\\anaconda3\\api-ms-win-core-console-l1-1-0.dll',
   'BINARY'),
  ('api-ms-win-core-timezone-l1-1-0.dll',
   'c:\\users\\thouwers\\appdata\\local\\continuum\\anaconda3\\api-ms-win-core-timezone-l1-1-0.dll',
   'BINARY'),
  ('api-ms-win-core-processenvironment-l1-1-0.dll',
   'c:\\users\\thouwers\\appdata\\local\\continuum\\anaconda3\\api-ms-win-core-processenvironment-l1-1-0.dll',
   'BINARY'),
  ('api-ms-win-core-memory-l1-1-0.dll',
   'c:\\users\\thouwers\\appdata\\local\\continuum\\anaconda3\\api-ms-win-core-memory-l1-1-0.dll',
   'BINARY'),
  ('api-ms-win-core-namedpipe-l1-1-0.dll',
   'c:\\users\\thouwers\\appdata\\local\\continuum\\anaconda3\\api-ms-win-core-namedpipe-l1-1-0.dll',
   'BINARY'),
  ('api-ms-win-core-libraryloader-l1-1-0.dll',
   'c:\\users\\thouwers\\appdata\\local\\continuum\\anaconda3\\api-ms-win-core-libraryloader-l1-1-0.dll',
   'BINARY'),
  ('api-ms-win-core-interlocked-l1-1-0.dll',
   'c:\\users\\thouwers\\appdata\\local\\continuum\\anaconda3\\api-ms-win-core-interlocked-l1-1-0.dll',
   'BINARY'),
  ('api-ms-win-core-debug-l1-1-0.dll',
   'c:\\users\\thouwers\\appdata\\local\\continuum\\anaconda3\\api-ms-win-core-debug-l1-1-0.dll',
   'BINARY'),
  ('api-ms-win-core-file-l2-1-0.dll',
   'c:\\users\\thouwers\\appdata\\local\\continuum\\anaconda3\\api-ms-win-core-file-l2-1-0.dll',
   'BINARY'),
  ('pythoncom37.dll',
   'C:\\Users\\THouwers\\AppData\\Local\\Continuum\\anaconda3\\Library\\bin\\pythoncom37.dll',
   'BINARY'),
  ('pywintypes37.dll',
   'c:\\users\\thouwers\\appdata\\local\\continuum\\anaconda3\\lib\\site-packages\\win32\\pywintypes37.dll',
   'BINARY'),
  ('win32trace',
   'c:\\users\\thouwers\\appdata\\local\\continuum\\anaconda3\\lib\\site-packages\\win32\\win32trace.pyd',
   'EXTENSION'),
  ('win32ui',
   'c:\\users\\thouwers\\appdata\\local\\continuum\\anaconda3\\lib\\site-packages\\Pythonwin\\win32ui.pyd',
   'EXTENSION'),
  ('_lzma',
   'c:\\users\\thouwers\\appdata\\local\\continuum\\anaconda3\\DLLs\\_lzma.pyd',
   'EXTENSION'),
  ('_bz2',
   'c:\\users\\thouwers\\appdata\\local\\continuum\\anaconda3\\DLLs\\_bz2.pyd',
   'EXTENSION'),
  ('_socket',
   'c:\\users\\thouwers\\appdata\\local\\continuum\\anaconda3\\DLLs\\_socket.pyd',
   'EXTENSION'),
  ('select',
   'c:\\users\\thouwers\\appdata\\local\\continuum\\anaconda3\\DLLs\\select.pyd',
   'EXTENSION'),
  ('_hashlib',
   'c:\\users\\thouwers\\appdata\\local\\continuum\\anaconda3\\DLLs\\_hashlib.pyd',
   'EXTENSION'),
  ('_ssl',
   'c:\\users\\thouwers\\appdata\\local\\continuum\\anaconda3\\DLLs\\_ssl.pyd',
   'EXTENSION'),
  ('unicodedata',
   'c:\\users\\thouwers\\appdata\\local\\continuum\\anaconda3\\DLLs\\unicodedata.pyd',
   'EXTENSION'),
  ('pyexpat',
   'c:\\users\\thouwers\\appdata\\local\\continuum\\anaconda3\\DLLs\\pyexpat.pyd',
   'EXTENSION'),
  ('_ctypes',
   'c:\\users\\thouwers\\appdata\\local\\continuum\\anaconda3\\DLLs\\_ctypes.pyd',
   'EXTENSION'),
  ('win32evtlog',
   'c:\\users\\thouwers\\appdata\\local\\continuum\\anaconda3\\lib\\site-packages\\win32\\win32evtlog.pyd',
   'EXTENSION'),
  ('_queue',
   'c:\\users\\thouwers\\appdata\\local\\continuum\\anaconda3\\DLLs\\_queue.pyd',
   'EXTENSION'),
  ('_win32sysloader',
   'c:\\users\\thouwers\\appdata\\local\\continuum\\anaconda3\\lib\\site-packages\\win32\\_win32sysloader.pyd',
   'EXTENSION'),
  ('win32api',
   'c:\\users\\thouwers\\appdata\\local\\continuum\\anaconda3\\lib\\site-packages\\win32\\win32api.pyd',
   'EXTENSION'),
  ('win32com.shell.shell',
   'c:\\users\\thouwers\\appdata\\local\\continuum\\anaconda3\\lib\\site-packages\\win32comext\\shell\\shell.pyd',
   'EXTENSION'),
  ('win32wnet',
   'c:\\users\\thouwers\\appdata\\local\\continuum\\anaconda3\\lib\\site-packages\\win32\\win32wnet.pyd',
   'EXTENSION'),
  ('_decimal',
   'c:\\users\\thouwers\\appdata\\local\\continuum\\anaconda3\\DLLs\\_decimal.pyd',
   'EXTENSION'),
  ('_multiprocessing',
   'c:\\users\\thouwers\\appdata\\local\\continuum\\anaconda3\\DLLs\\_multiprocessing.pyd',
   'EXTENSION'),
  ('PIL._imagingft',
   'c:\\users\\thouwers\\appdata\\local\\continuum\\anaconda3\\lib\\site-packages\\PIL\\_imagingft.cp37-win_amd64.pyd',
   'EXTENSION'),
  ('PIL._imagingtk',
   'c:\\users\\thouwers\\appdata\\local\\continuum\\anaconda3\\lib\\site-packages\\PIL\\_imagingtk.cp37-win_amd64.pyd',
   'EXTENSION'),
  ('_cffi_backend',
   'c:\\users\\thouwers\\appdata\\local\\continuum\\anaconda3\\lib\\site-packages\\_cffi_backend.cp37-win_amd64.pyd',
   'EXTENSION'),
  ('PIL._imaging',
   'c:\\users\\thouwers\\appdata\\local\\continuum\\anaconda3\\lib\\site-packages\\PIL\\_imaging.cp37-win_amd64.pyd',
   'EXTENSION'),
  ('lxml.etree',
   'c:\\users\\thouwers\\appdata\\local\\continuum\\anaconda3\\lib\\site-packages\\lxml\\etree.cp37-win_amd64.pyd',
   'EXTENSION'),
  ('lxml._elementpath',
   'c:\\users\\thouwers\\appdata\\local\\continuum\\anaconda3\\lib\\site-packages\\lxml\\_elementpath.cp37-win_amd64.pyd',
   'EXTENSION'),
  ('api-ms-win-crt-utility-l1-1-0.dll',
   'C:\\Users\\THouwers\\AppData\\Local\\Continuum\\anaconda3\\Library\\bin\\api-ms-win-crt-utility-l1-1-0.dll',
   'BINARY'),
  ('mfc140u.dll',
   'c:\\users\\thouwers\\appdata\\local\\continuum\\anaconda3\\lib\\site-packages\\Pythonwin\\mfc140u.dll',
   'BINARY'),
  ('libcrypto-1_1-x64.dll',
   'C:\\Users\\THouwers\\AppData\\Local\\Continuum\\anaconda3\\Library\\bin\\libcrypto-1_1-x64.dll',
   'BINARY'),
  ('libssl-1_1-x64.dll',
   'C:\\Users\\THouwers\\AppData\\Local\\Continuum\\anaconda3\\Library\\bin\\libssl-1_1-x64.dll',
   'BINARY'),
  ('freetype.dll',
   'C:\\Users\\THouwers\\AppData\\Local\\Continuum\\anaconda3\\Library\\bin\\freetype.dll',
   'BINARY'),
  ('zlib.dll',
   'C:\\Users\\THouwers\\AppData\\Local\\Continuum\\anaconda3\\Library\\bin\\zlib.dll',
   'BINARY'),
  ('tiff.dll',
   'C:\\Users\\THouwers\\AppData\\Local\\Continuum\\anaconda3\\Library\\bin\\tiff.dll',
   'BINARY'),
  ('libxml2.dll',
   'C:\\Users\\THouwers\\AppData\\Local\\Continuum\\anaconda3\\Library\\bin\\libxml2.dll',
   'BINARY'),
  ('libxslt.dll',
   'C:\\Users\\THouwers\\AppData\\Local\\Continuum\\anaconda3\\Library\\bin\\libxslt.dll',
   'BINARY'),
  ('libexslt.dll',
   'C:\\Users\\THouwers\\AppData\\Local\\Continuum\\anaconda3\\Library\\bin\\libexslt.dll',
   'BINARY'),
  ('api-ms-win-crt-multibyte-l1-1-0.dll',
   'c:\\users\\thouwers\\appdata\\local\\continuum\\anaconda3\\api-ms-win-crt-multibyte-l1-1-0.dll',
   'BINARY'),
  ('libpng16.dll',
   'C:\\Users\\THouwers\\AppData\\Local\\Continuum\\anaconda3\\Library\\bin\\libpng16.dll',
   'BINARY'),
  ('libzstd.dll',
   'C:\\Users\\THouwers\\AppData\\Local\\Continuum\\anaconda3\\Library\\bin\\libzstd.dll',
   'BINARY'),
  ('liblzma.dll',
   'C:\\Users\\THouwers\\AppData\\Local\\Continuum\\anaconda3\\Library\\bin\\liblzma.dll',
   'BINARY'),
  ('iconv.dll',
   'C:\\Users\\THouwers\\AppData\\Local\\Continuum\\anaconda3\\Library\\bin\\iconv.dll',
   'BINARY'),
  ('charset.dll',
   'C:\\Users\\THouwers\\AppData\\Local\\Continuum\\anaconda3\\Library\\bin\\charset.dll',
   'BINARY')],
 [],
 [],
 [('base_library.zip',
   'C:\\Users\\THouwers\\OneDrive - Deloitte (O365D)\\1. AIM\\Python PPTX '
   'Usecases\\.exe '
   'file\\build\\Substitute_text_slidemaster_layout_to_exe\\base_library.zip',
   'DATA'),
  ('lib2to3\\Grammar3.7.4.final.0.pickle',
   'c:\\users\\thouwers\\appdata\\local\\continuum\\anaconda3\\lib\\lib2to3\\Grammar3.7.4.final.0.pickle',
   'DATA'),
  ('lib2to3\\PatternGrammar.txt',
   'c:\\users\\thouwers\\appdata\\local\\continuum\\anaconda3\\lib\\lib2to3\\PatternGrammar.txt',
   'DATA'),
  ('lib2to3\\PatternGrammar3.7.4.final.0.pickle',
   'c:\\users\\thouwers\\appdata\\local\\continuum\\anaconda3\\lib\\lib2to3\\PatternGrammar3.7.4.final.0.pickle',
   'DATA'),
  ('lib2to3\\Grammar.txt',
   'c:\\users\\thouwers\\appdata\\local\\continuum\\anaconda3\\lib\\lib2to3\\Grammar.txt',
   'DATA'),
  ('Include\\pyconfig.h',
   'c:\\users\\thouwers\\appdata\\local\\continuum\\anaconda3\\Include\\pyconfig.h',
   'DATA')],
 [])
