('C:\\Users\\THouwers\\OneDrive - Deloitte (O365D)\\1. AIM\\Python PPTX '
 'Usecases\\.exe '
 'file\\build\\Substitute_text_slidemaster_layout_to_exe\\PKG-00.pkg',
 {'BINARY': 1,
  'DATA': 1,
  'EXECUTABLE': 1,
  'EXTENSION': 1,
  'PYMODULE': 1,
  'PYSOURCE': 1,
  'PYZ': 0},
 [('PYZ-00.pyz',
   'C:\\Users\\THouwers\\OneDrive - Deloitte (O365D)\\1. AIM\\Python PPTX '
   'Usecases\\.exe '
   'file\\build\\Substitute_text_slidemaster_layout_to_exe\\PYZ-00.pyz',
   'PYZ'),
  ('struct',
   'c:\\users\\thouwers\\appdata\\local\\continuum\\anaconda3\\lib\\struct.pyo',
   'PYMODULE'),
  ('pyimod01_os_path',
   'c:\\users\\thouwers\\appdata\\local\\continuum\\anaconda3\\lib\\site-packages\\PyInstaller\\loader\\pyimod01_os_path.pyc',
   'PYMODULE'),
  ('pyimod02_archive',
   'c:\\users\\thouwers\\appdata\\local\\continuum\\anaconda3\\lib\\site-packages\\PyInstaller\\loader\\pyimod02_archive.pyc',
   'PYMODULE'),
  ('pyimod03_importers',
   'c:\\users\\thouwers\\appdata\\local\\continuum\\anaconda3\\lib\\site-packages\\PyInstaller\\loader\\pyimod03_importers.pyc',
   'PYMODULE'),
  ('pyiboot01_bootstrap',
   'c:\\users\\thouwers\\appdata\\local\\continuum\\anaconda3\\lib\\site-packages\\PyInstaller\\loader\\pyiboot01_bootstrap.py',
   'PYSOURCE'),
  ('pyi_rth_multiprocessing',
   'c:\\users\\thouwers\\appdata\\local\\continuum\\anaconda3\\lib\\site-packages\\PyInstaller\\loader\\rthooks\\pyi_rth_multiprocessing.py',
   'PYSOURCE'),
  ('pyi_rth_pkgres',
   'c:\\users\\thouwers\\appdata\\local\\continuum\\anaconda3\\lib\\site-packages\\PyInstaller\\loader\\rthooks\\pyi_rth_pkgres.py',
   'PYSOURCE'),
  ('pyi_rth_win32comgenpy',
   'c:\\users\\thouwers\\appdata\\local\\continuum\\anaconda3\\lib\\site-packages\\PyInstaller\\loader\\rthooks\\pyi_rth_win32comgenpy.py',
   'PYSOURCE'),
  ('Substitute_text_slidemaster_layout_to_exe',
   'C:\\Users\\THouwers\\OneDrive - Deloitte (O365D)\\1. AIM\\Python PPTX '
   'Usecases\\.exe file\\Substitute_text_slidemaster_layout_to_exe.py',
   'PYSOURCE'),
  ('api-ms-win-crt-runtime-l1-1-0.dll',
   'c:\\users\\thouwers\\appdata\\local\\continuum\\anaconda3\\api-ms-win-crt-runtime-l1-1-0.dll',
   'BINARY'),
  ('VCRUNTIME140.dll',
   'c:\\users\\thouwers\\appdata\\local\\continuum\\anaconda3\\VCRUNTIME140.dll',
   'BINARY'),
  ('api-ms-win-crt-math-l1-1-0.dll',
   'c:\\users\\thouwers\\appdata\\local\\continuum\\anaconda3\\api-ms-win-crt-math-l1-1-0.dll',
   'BINARY'),
  ('api-ms-win-crt-stdio-l1-1-0.dll',
   'c:\\users\\thouwers\\appdata\\local\\continuum\\anaconda3\\api-ms-win-crt-stdio-l1-1-0.dll',
   'BINARY'),
  ('python37.dll',
   'c:\\users\\thouwers\\appdata\\local\\continuum\\anaconda3\\python37.dll',
   'BINARY'),
  ('api-ms-win-crt-heap-l1-1-0.dll',
   'c:\\users\\thouwers\\appdata\\local\\continuum\\anaconda3\\api-ms-win-crt-heap-l1-1-0.dll',
   'BINARY'),
  ('api-ms-win-crt-locale-l1-1-0.dll',
   'c:\\users\\thouwers\\appdata\\local\\continuum\\anaconda3\\api-ms-win-crt-locale-l1-1-0.dll',
   'BINARY'),
  ('ucrtbase.dll',
   'c:\\users\\thouwers\\appdata\\local\\continuum\\anaconda3\\ucrtbase.dll',
   'BINARY'),
  ('api-ms-win-crt-string-l1-1-0.dll',
   'c:\\users\\thouwers\\appdata\\local\\continuum\\anaconda3\\api-ms-win-crt-string-l1-1-0.dll',
   'BINARY'),
  ('api-ms-win-crt-convert-l1-1-0.dll',
   'c:\\users\\thouwers\\appdata\\local\\continuum\\anaconda3\\api-ms-win-crt-convert-l1-1-0.dll',
   'BINARY'),
  ('api-ms-win-crt-time-l1-1-0.dll',
   'c:\\users\\thouwers\\appdata\\local\\continuum\\anaconda3\\api-ms-win-crt-time-l1-1-0.dll',
   'BINARY'),
  ('api-ms-win-crt-conio-l1-1-0.dll',
   'c:\\users\\thouwers\\appdata\\local\\continuum\\anaconda3\\api-ms-win-crt-conio-l1-1-0.dll',
   'BINARY'),
  ('api-ms-win-crt-environment-l1-1-0.dll',
   'c:\\users\\thouwers\\appdata\\local\\continuum\\anaconda3\\api-ms-win-crt-environment-l1-1-0.dll',
   'BINARY'),
  ('api-ms-win-crt-filesystem-l1-1-0.dll',
   'c:\\users\\thouwers\\appdata\\local\\continuum\\anaconda3\\api-ms-win-crt-filesystem-l1-1-0.dll',
   'BINARY'),
  ('api-ms-win-crt-process-l1-1-0.dll',
   'c:\\users\\thouwers\\appdata\\local\\continuum\\anaconda3\\api-ms-win-crt-process-l1-1-0.dll',
   'BINARY'),
  ('api-ms-win-core-file-l1-1-0.dll',
   'c:\\users\\thouwers\\appdata\\local\\continuum\\anaconda3\\api-ms-win-core-file-l1-1-0.dll',
   'BINARY'),
  ('api-ms-win-core-processthreads-l1-1-0.dll',
   'c:\\users\\thouwers\\appdata\\local\\continuum\\anaconda3\\api-ms-win-core-processthreads-l1-1-0.dll',
   'BINARY'),
  ('api-ms-win-core-profile-l1-1-0.dll',
   'c:\\users\\thouwers\\appdata\\local\\continuum\\anaconda3\\api-ms-win-core-profile-l1-1-0.dll',
   'BINARY'),
  ('api-ms-win-core-processthreads-l1-1-1.dll',
   'c:\\users\\thouwers\\appdata\\local\\continuum\\anaconda3\\api-ms-win-core-processthreads-l1-1-1.dll',
   'BINARY'),
  ('api-ms-win-core-rtlsupport-l1-1-0.dll',
   'c:\\users\\thouwers\\appdata\\local\\continuum\\anaconda3\\api-ms-win-core-rtlsupport-l1-1-0.dll',
   'BINARY'),
  ('api-ms-win-core-handle-l1-1-0.dll',
   'c:\\users\\thouwers\\appdata\\local\\continuum\\anaconda3\\api-ms-win-core-handle-l1-1-0.dll',
   'BINARY'),
  ('api-ms-win-core-errorhandling-l1-1-0.dll',
   'c:\\users\\thouwers\\appdata\\local\\continuum\\anaconda3\\api-ms-win-core-errorhandling-l1-1-0.dll',
   'BINARY'),
  ('api-ms-win-core-synch-l1-1-0.dll',
   'c:\\users\\thouwers\\appdata\\local\\continuum\\anaconda3\\api-ms-win-core-synch-l1-1-0.dll',
   'BINARY'),
  ('api-ms-win-core-heap-l1-1-0.dll',
   'c:\\users\\thouwers\\appdata\\local\\continuum\\anaconda3\\api-ms-win-core-heap-l1-1-0.dll',
   'BINARY'),
  ('api-ms-win-core-synch-l1-2-0.dll',
   'c:\\users\\thouwers\\appdata\\local\\continuum\\anaconda3\\api-ms-win-core-synch-l1-2-0.dll',
   'BINARY'),
  ('api-ms-win-core-datetime-l1-1-0.dll',
   'c:\\users\\thouwers\\appdata\\local\\continuum\\anaconda3\\api-ms-win-core-datetime-l1-1-0.dll',
   'BINARY'),
  ('api-ms-win-core-string-l1-1-0.dll',
   'c:\\users\\thouwers\\appdata\\local\\continuum\\anaconda3\\api-ms-win-core-string-l1-1-0.dll',
   'BINARY'),
  ('api-ms-win-core-localization-l1-2-0.dll',
   'c:\\users\\thouwers\\appdata\\local\\continuum\\anaconda3\\api-ms-win-core-localization-l1-2-0.dll',
   'BINARY'),
  ('api-ms-win-core-util-l1-1-0.dll',
   'c:\\users\\thouwers\\appdata\\local\\continuum\\anaconda3\\api-ms-win-core-util-l1-1-0.dll',
   'BINARY'),
  ('api-ms-win-core-sysinfo-l1-1-0.dll',
   'c:\\users\\thouwers\\appdata\\local\\continuum\\anaconda3\\api-ms-win-core-sysinfo-l1-1-0.dll',
   'BINARY'),
  ('api-ms-win-core-file-l1-2-0.dll',
   'c:\\users\\thouwers\\appdata\\local\\continuum\\anaconda3\\api-ms-win-core-file-l1-2-0.dll',
   'BINARY'),
  ('api-ms-win-core-console-l1-1-0.dll',
   'c:\\users\\thouwers\\appdata\\local\\continuum\\anaconda3\\api-ms-win-core-console-l1-1-0.dll',
   'BINARY'),
  ('api-ms-win-core-timezone-l1-1-0.dll',
   'c:\\users\\thouwers\\appdata\\local\\continuum\\anaconda3\\api-ms-win-core-timezone-l1-1-0.dll',
   'BINARY'),
  ('api-ms-win-core-processenvironment-l1-1-0.dll',
   'c:\\users\\thouwers\\appdata\\local\\continuum\\anaconda3\\api-ms-win-core-processenvironment-l1-1-0.dll',
   'BINARY'),
  ('api-ms-win-core-memory-l1-1-0.dll',
   'c:\\users\\thouwers\\appdata\\local\\continuum\\anaconda3\\api-ms-win-core-memory-l1-1-0.dll',
   'BINARY'),
  ('api-ms-win-core-namedpipe-l1-1-0.dll',
   'c:\\users\\thouwers\\appdata\\local\\continuum\\anaconda3\\api-ms-win-core-namedpipe-l1-1-0.dll',
   'BINARY'),
  ('api-ms-win-core-libraryloader-l1-1-0.dll',
   'c:\\users\\thouwers\\appdata\\local\\continuum\\anaconda3\\api-ms-win-core-libraryloader-l1-1-0.dll',
   'BINARY'),
  ('api-ms-win-core-interlocked-l1-1-0.dll',
   'c:\\users\\thouwers\\appdata\\local\\continuum\\anaconda3\\api-ms-win-core-interlocked-l1-1-0.dll',
   'BINARY'),
  ('api-ms-win-core-debug-l1-1-0.dll',
   'c:\\users\\thouwers\\appdata\\local\\continuum\\anaconda3\\api-ms-win-core-debug-l1-1-0.dll',
   'BINARY'),
  ('api-ms-win-core-file-l2-1-0.dll',
   'c:\\users\\thouwers\\appdata\\local\\continuum\\anaconda3\\api-ms-win-core-file-l2-1-0.dll',
   'BINARY'),
  ('pythoncom37.dll',
   'C:\\Users\\THouwers\\AppData\\Local\\Continuum\\anaconda3\\Library\\bin\\pythoncom37.dll',
   'BINARY'),
  ('pywintypes37.dll',
   'c:\\users\\thouwers\\appdata\\local\\continuum\\anaconda3\\lib\\site-packages\\win32\\pywintypes37.dll',
   'BINARY'),
  ('win32trace',
   'c:\\users\\thouwers\\appdata\\local\\continuum\\anaconda3\\lib\\site-packages\\win32\\win32trace.pyd',
   'EXTENSION'),
  ('win32ui',
   'c:\\users\\thouwers\\appdata\\local\\continuum\\anaconda3\\lib\\site-packages\\Pythonwin\\win32ui.pyd',
   'EXTENSION'),
  ('_lzma',
   'c:\\users\\thouwers\\appdata\\local\\continuum\\anaconda3\\DLLs\\_lzma.pyd',
   'EXTENSION'),
  ('_bz2',
   'c:\\users\\thouwers\\appdata\\local\\continuum\\anaconda3\\DLLs\\_bz2.pyd',
   'EXTENSION'),
  ('_socket',
   'c:\\users\\thouwers\\appdata\\local\\continuum\\anaconda3\\DLLs\\_socket.pyd',
   'EXTENSION'),
  ('select',
   'c:\\users\\thouwers\\appdata\\local\\continuum\\anaconda3\\DLLs\\select.pyd',
   'EXTENSION'),
  ('_hashlib',
   'c:\\users\\thouwers\\appdata\\local\\continuum\\anaconda3\\DLLs\\_hashlib.pyd',
   'EXTENSION'),
  ('_ssl',
   'c:\\users\\thouwers\\appdata\\local\\continuum\\anaconda3\\DLLs\\_ssl.pyd',
   'EXTENSION'),
  ('unicodedata',
   'c:\\users\\thouwers\\appdata\\local\\continuum\\anaconda3\\DLLs\\unicodedata.pyd',
   'EXTENSION'),
  ('pyexpat',
   'c:\\users\\thouwers\\appdata\\local\\continuum\\anaconda3\\DLLs\\pyexpat.pyd',
   'EXTENSION'),
  ('_ctypes',
   'c:\\users\\thouwers\\appdata\\local\\continuum\\anaconda3\\DLLs\\_ctypes.pyd',
   'EXTENSION'),
  ('win32evtlog',
   'c:\\users\\thouwers\\appdata\\local\\continuum\\anaconda3\\lib\\site-packages\\win32\\win32evtlog.pyd',
   'EXTENSION'),
  ('_queue',
   'c:\\users\\thouwers\\appdata\\local\\continuum\\anaconda3\\DLLs\\_queue.pyd',
   'EXTENSION'),
  ('_win32sysloader',
   'c:\\users\\thouwers\\appdata\\local\\continuum\\anaconda3\\lib\\site-packages\\win32\\_win32sysloader.pyd',
   'EXTENSION'),
  ('win32api',
   'c:\\users\\thouwers\\appdata\\local\\continuum\\anaconda3\\lib\\site-packages\\win32\\win32api.pyd',
   'EXTENSION'),
  ('win32com.shell.shell',
   'c:\\users\\thouwers\\appdata\\local\\continuum\\anaconda3\\lib\\site-packages\\win32comext\\shell\\shell.pyd',
   'EXTENSION'),
  ('win32wnet',
   'c:\\users\\thouwers\\appdata\\local\\continuum\\anaconda3\\lib\\site-packages\\win32\\win32wnet.pyd',
   'EXTENSION'),
  ('_decimal',
   'c:\\users\\thouwers\\appdata\\local\\continuum\\anaconda3\\DLLs\\_decimal.pyd',
   'EXTENSION'),
  ('_multiprocessing',
   'c:\\users\\thouwers\\appdata\\local\\continuum\\anaconda3\\DLLs\\_multiprocessing.pyd',
   'EXTENSION'),
  ('PIL._imagingft',
   'c:\\users\\thouwers\\appdata\\local\\continuum\\anaconda3\\lib\\site-packages\\PIL\\_imagingft.cp37-win_amd64.pyd',
   'EXTENSION'),
  ('PIL._imagingtk',
   'c:\\users\\thouwers\\appdata\\local\\continuum\\anaconda3\\lib\\site-packages\\PIL\\_imagingtk.cp37-win_amd64.pyd',
   'EXTENSION'),
  ('_cffi_backend',
   'c:\\users\\thouwers\\appdata\\local\\continuum\\anaconda3\\lib\\site-packages\\_cffi_backend.cp37-win_amd64.pyd',
   'EXTENSION'),
  ('PIL._imaging',
   'c:\\users\\thouwers\\appdata\\local\\continuum\\anaconda3\\lib\\site-packages\\PIL\\_imaging.cp37-win_amd64.pyd',
   'EXTENSION'),
  ('lxml.etree',
   'c:\\users\\thouwers\\appdata\\local\\continuum\\anaconda3\\lib\\site-packages\\lxml\\etree.cp37-win_amd64.pyd',
   'EXTENSION'),
  ('lxml._elementpath',
   'c:\\users\\thouwers\\appdata\\local\\continuum\\anaconda3\\lib\\site-packages\\lxml\\_elementpath.cp37-win_amd64.pyd',
   'EXTENSION'),
  ('api-ms-win-crt-utility-l1-1-0.dll',
   'C:\\Users\\THouwers\\AppData\\Local\\Continuum\\anaconda3\\Library\\bin\\api-ms-win-crt-utility-l1-1-0.dll',
   'BINARY'),
  ('mfc140u.dll',
   'c:\\users\\thouwers\\appdata\\local\\continuum\\anaconda3\\lib\\site-packages\\Pythonwin\\mfc140u.dll',
   'BINARY'),
  ('libcrypto-1_1-x64.dll',
   'C:\\Users\\THouwers\\AppData\\Local\\Continuum\\anaconda3\\Library\\bin\\libcrypto-1_1-x64.dll',
   'BINARY'),
  ('libssl-1_1-x64.dll',
   'C:\\Users\\THouwers\\AppData\\Local\\Continuum\\anaconda3\\Library\\bin\\libssl-1_1-x64.dll',
   'BINARY'),
  ('freetype.dll',
   'C:\\Users\\THouwers\\AppData\\Local\\Continuum\\anaconda3\\Library\\bin\\freetype.dll',
   'BINARY'),
  ('zlib.dll',
   'C:\\Users\\THouwers\\AppData\\Local\\Continuum\\anaconda3\\Library\\bin\\zlib.dll',
   'BINARY'),
  ('tiff.dll',
   'C:\\Users\\THouwers\\AppData\\Local\\Continuum\\anaconda3\\Library\\bin\\tiff.dll',
   'BINARY'),
  ('libxml2.dll',
   'C:\\Users\\THouwers\\AppData\\Local\\Continuum\\anaconda3\\Library\\bin\\libxml2.dll',
   'BINARY'),
  ('libxslt.dll',
   'C:\\Users\\THouwers\\AppData\\Local\\Continuum\\anaconda3\\Library\\bin\\libxslt.dll',
   'BINARY'),
  ('libexslt.dll',
   'C:\\Users\\THouwers\\AppData\\Local\\Continuum\\anaconda3\\Library\\bin\\libexslt.dll',
   'BINARY'),
  ('api-ms-win-crt-multibyte-l1-1-0.dll',
   'c:\\users\\thouwers\\appdata\\local\\continuum\\anaconda3\\api-ms-win-crt-multibyte-l1-1-0.dll',
   'BINARY'),
  ('libpng16.dll',
   'C:\\Users\\THouwers\\AppData\\Local\\Continuum\\anaconda3\\Library\\bin\\libpng16.dll',
   'BINARY'),
  ('libzstd.dll',
   'C:\\Users\\THouwers\\AppData\\Local\\Continuum\\anaconda3\\Library\\bin\\libzstd.dll',
   'BINARY'),
  ('liblzma.dll',
   'C:\\Users\\THouwers\\AppData\\Local\\Continuum\\anaconda3\\Library\\bin\\liblzma.dll',
   'BINARY'),
  ('iconv.dll',
   'C:\\Users\\THouwers\\AppData\\Local\\Continuum\\anaconda3\\Library\\bin\\iconv.dll',
   'BINARY'),
  ('charset.dll',
   'C:\\Users\\THouwers\\AppData\\Local\\Continuum\\anaconda3\\Library\\bin\\charset.dll',
   'BINARY'),
  ('base_library.zip',
   'C:\\Users\\THouwers\\OneDrive - Deloitte (O365D)\\1. AIM\\Python PPTX '
   'Usecases\\.exe '
   'file\\build\\Substitute_text_slidemaster_layout_to_exe\\base_library.zip',
   'DATA'),
  ('lib2to3\\Grammar3.7.4.final.0.pickle',
   'c:\\users\\thouwers\\appdata\\local\\continuum\\anaconda3\\lib\\lib2to3\\Grammar3.7.4.final.0.pickle',
   'DATA'),
  ('lib2to3\\PatternGrammar.txt',
   'c:\\users\\thouwers\\appdata\\local\\continuum\\anaconda3\\lib\\lib2to3\\PatternGrammar.txt',
   'DATA'),
  ('lib2to3\\PatternGrammar3.7.4.final.0.pickle',
   'c:\\users\\thouwers\\appdata\\local\\continuum\\anaconda3\\lib\\lib2to3\\PatternGrammar3.7.4.final.0.pickle',
   'DATA'),
  ('lib2to3\\Grammar.txt',
   'c:\\users\\thouwers\\appdata\\local\\continuum\\anaconda3\\lib\\lib2to3\\Grammar.txt',
   'DATA'),
  ('Include\\pyconfig.h',
   'c:\\users\\thouwers\\appdata\\local\\continuum\\anaconda3\\Include\\pyconfig.h',
   'DATA'),
  ('Substitute_text_slidemaster_layout_to_exe.exe.manifest',
   'C:\\Users\\THouwers\\OneDrive - Deloitte (O365D)\\1. AIM\\Python PPTX '
   'Usecases\\.exe '
   'file\\build\\Substitute_text_slidemaster_layout_to_exe\\Substitute_text_slidemaster_layout_to_exe.exe.manifest',
   'BINARY'),
  ('pyi-windows-manifest-filename '
   'Substitute_text_slidemaster_layout_to_exe.exe.manifest',
   '',
   'OPTION')],
 False,
 False,
 False,
 [])
